digraph G {

0 [label=PanR0209,style=filled,color=black,fillcolor=blue];

1 [label=PanR0207,style=filled,color=black,fillcolor=blue];

2 [label=PanR0607,style=filled,color=black,fillcolor=blue];

3 [label=PanR0601,style=filled,color=black,fillcolor=blue];

4 [label=PanR0317,style=filled,color=black,fillcolor=blue];

5 [label=PanR0909,style=filled,color=black,fillcolor=blue];

6 [label=PanR0904,style=filled,color=black,fillcolor=blue];

7 [label=PanR0803,style=filled,color=black,fillcolor=blue];

8 [label=PanR1006,style=filled,color=black,fillcolor=blue];

9 [label=PanR0410,style=filled,color=black,fillcolor=blue];

10 [label=PanR0802,style=filled,color=black,fillcolor=blue];

11 [label=PanR1005,style=filled,color=black,fillcolor=blue];

12 [label=PanR0412,style=filled,color=black,fillcolor=blue];

13 [label=PanR0501,style=filled,color=black,fillcolor=blue];

14 [label=PanR0804,style=filled,color=black,fillcolor=blue];

15 [label=PanR0411,style=filled,color=black,fillcolor=blue];

16 [label=PanR0307,style=filled,color=black,fillcolor=blue];

17 [label=PanR0405,style=filled,color=black,fillcolor=blue];

18 [label=PanR0306,style=filled,color=black,fillcolor=blue];

19 [label=PanR0311,style=filled,color=black,fillcolor=blue];

20 [label=PanR0205,style=filled,color=black,fillcolor=blue];

21 [label=PanR0603,style=filled,color=black,fillcolor=blue];

22 [label=PanR0505,style=filled,color=black,fillcolor=blue];

23 [label=PanR0604,style=filled,color=black,fillcolor=blue];

24 [label=PanR0401,style=filled,color=black,fillcolor=blue];

25 [label=PanR0707,style=filled,color=black,fillcolor=blue];

26 [label=PanR0702,style=filled,color=black,fillcolor=blue];

27 [label=PanR0314,style=filled,color=black,fillcolor=blue];

28 [label=PanR0609,style=filled,color=black,fillcolor=blue];

29 [label=PanR0203,style=filled,color=black,fillcolor=blue];

30 [label=INSXDR,style=filled,color=black,fillcolor=orange];

31 [label=INSMDR,style=filled,color=black,fillcolor=orange];

32 [label=PanR0402,style=filled,color=black,fillcolor=blue];

33 [label=CTRI2,style=filled,color=black,fillcolor=green];

34 [label=PanR0602,style=filled,color=black,fillcolor=blue];

35 [label=KZNR506,style=filled,color=black,fillcolor=purple];

36 [label=KZN1435,style=filled,color=black,fillcolor=purple];

37 [label=KZNV2475,style=filled,color=black,fillcolor=purple];

38 [label=KZN4207Broad,style=filled,color=black,fillcolor=purple];

39 [label=KZN4207,style=filled,color=black,fillcolor=purple];

40 [label=OSDD493,style=filled,color=black,fillcolor=red];

41 [label=OSDD105,style=filled,color=black,fillcolor=red];

42 [label=OSDD515,style=filled,color=black,fillcolor=purple];

43 [label=PanR0407,style=filled,color=black,fillcolor=blue];

44 [label=SUMu008,style=filled,color=black,fillcolor=gray];

45 [label=SUMu012,style=filled,color=black,fillcolor=gray];

46 [label=SUMu010,style=filled,color=black,fillcolor=gray];

47 [label=KZN605,style=filled,color=black,fillcolor=purple];

48 [label=PanR0610,style=filled,color=black,fillcolor=blue];

49 [label=PanR0503,style=filled,color=black,fillcolor=blue];

50 [label=PanR0404,style=filled,color=black,fillcolor=blue];

51 [label=PanR0308,style=filled,color=black,fillcolor=blue];

52 [label=PanR0409,style=filled,color=black,fillcolor=blue];

53 [label=PanR0201,style=filled,color=black,fillcolor=blue];

54 [label=PanR0903,style=filled,color=black,fillcolor=blue];

55 [label=PanR0313,style=filled,color=black,fillcolor=blue];

56 [label=PanR0304,style=filled,color=black,fillcolor=blue];

57 [label=RGTB327,style=filled,color=black,fillcolor=red];

58 [label=PanR0403,style=filled,color=black,fillcolor=blue];

59 [label=PanR1101,style=filled,color=black,fillcolor=blue];

60 [label=GM1503,style=filled,color=black,fillcolor=purple];

61 [label=n98R604INHRIFEM,style=filled,color=black,fillcolor=gray];

62 [label=UT205,style=filled,color=black,fillcolor=orange];

63 [label=F11,style=filled,color=black,fillcolor=purple];

64 [label=PanR0906,style=filled,color=black,fillcolor=blue];

65 [label=PanR0611,style=filled,color=black,fillcolor=blue];

66 [label=PanR0805,style=filled,color=black,fillcolor=blue];

67 [label=PanR0708,style=filled,color=black,fillcolor=blue];

68 [label=PanR0704,style=filled,color=black,fillcolor=blue];

69 [label=PanR0703,style=filled,color=black,fillcolor=blue];

70 [label=PanR1007,style=filled,color=black,fillcolor=blue];

71 [label=HM,style=filled,color=black,fillcolor=orange];

72 [label=INSSEN,style=filled,color=black,fillcolor=orange];

73 [label=MTB476,style=filled,color=black,fillcolor=red];

74 [label=SUMu002,style=filled,color=black,fillcolor=gray];

75 [label=SUMu005,style=filled,color=black,fillcolor=gray];

76 [label=SUMu004,style=filled,color=black,fillcolor=gray];

77 [label=SUMu003,style=filled,color=black,fillcolor=gray];

78 [label=SUMu006,style=filled,color=black,fillcolor=gray];

79 [label=SUMu007,style=filled,color=black,fillcolor=gray];

80 [label=GuangZ0019,style=filled,color=black,fillcolor=red];

81 [label=PanR0208,style=filled,color=black,fillcolor=blue];

82 [label=PanR0309,style=filled,color=black,fillcolor=blue];

83 [label=PanR0202,style=filled,color=black,fillcolor=blue];

84 [label=MTB489,style=filled,color=black,fillcolor=red];

85 [label=H37RvAE,style=filled,color=black,fillcolor=yellow];

86 [label=H37Ra,style=filled,color=black,fillcolor=yellow];

87 [label=H37RvMA,style=filled,color=black,fillcolor=yellow];

88 [label=H37RvCO,style=filled,color=black,fillcolor=yellow];

89 [label=H37RvBroad,style=filled,color=black,fillcolor=yellow];

90 [label=H37RvJO,style=filled,color=black,fillcolor=yellow];

91 [label=H37RvHA,style=filled,color=black,fillcolor=yellow];

92 [label=H37RvLP,style=filled,color=black,fillcolor=yellow];

93 [label=H37Rv,style=filled,color=black,fillcolor=yellow];

94 [label=PanR0908,style=filled,color=black,fillcolor=blue];

95 [label=SUMu001,style=filled,color=black,fillcolor=gray];

96 [label=SUMu009,style=filled,color=black,fillcolor=gray];

97 [label=SUMu011,style=filled,color=black,fillcolor=gray];

98 [label=BTB05559,style=filled,color=black,fillcolor=green];

99 [label=S96129,style=filled,color=black,fillcolor=green];

100 [label=BTB05552,style=filled,color=black,fillcolor=green];

101 [label=PanR0206,style=filled,color=black,fillcolor=blue];

102 [label=PanR0907,style=filled,color=black,fillcolor=blue];

103 [label=PanR0902,style=filled,color=black,fillcolor=blue];

104 [label=Haarlem,style=filled,color=black,fillcolor=green];

105 [label=n719999,style=filled,color=black,fillcolor=green];

106 [label=Erdman,style=filled,color=black,fillcolor=yellow];

107 [label=PanR0801,style=filled,color=black,fillcolor=blue];

108 [label=PanR0315,style=filled,color=black,fillcolor=blue];

109 [label=CDC1551A,style=filled,color=black,fillcolor=gray];

110 [label=CDC1551,style=filled,color=black,fillcolor=yellow];

111 [label=PanR0301,style=filled,color=black,fillcolor=blue];

112 [label=PanR0316,style=filled,color=black,fillcolor=blue];

113 [label=PanR0305,style=filled,color=black,fillcolor=blue];

114 [label=C,style=filled,color=black,fillcolor=yellow];

115 [label=RGTB423,style=filled,color=black,fillcolor=red];

116 [label=H37RaWGS,style=filled,color=black,fillcolor=yellow];

117 [label=EAI5NITR206,style=filled,color=black,fillcolor=red];

118 [label=EAI5,style=filled,color=black,fillcolor=red];

119 [label=EAS054,style=filled,color=black,fillcolor=red];

120 [label=T92,style=filled,color=black,fillcolor=gray];

121 [label=PR05,style=filled,color=black,fillcolor=red];

122 [label=T17,style=filled,color=black,fillcolor=red];

123 [label=T46,style=filled,color=black,fillcolor=red];

124 [label=EAIOSDD271,style=filled,color=black,fillcolor=red];

125 [label=NAA0009,style=filled,color=black,fillcolor=red];

126 [label=NAA0008,style=filled,color=black,fillcolor=red];

127 [label=n4316836,style=filled,color=black,fillcolor=red];

128 [label=CPHLA,style=filled,color=black,fillcolor=purple];

129 [label=K85,style=filled,color=black,fillcolor=green];

130 [label=OSDD518,style=filled,color=black,fillcolor=red];

131 [label=OSDD504,style=filled,color=black,fillcolor=red];

132 [label=OSDD071,style=filled,color=black,fillcolor=red];

133 [label=UM1072388579,style=filled,color=black,fillcolor=red];

134 [label=n94M4241A,style=filled,color=black,fillcolor=red];

135 [label=FJ05194,style=filled,color=black,fillcolor=red];

136 [label=BeijingNITR203,style=filled,color=black,fillcolor=red];

137 [label=R1842,style=filled,color=black,fillcolor=purple];

138 [label=X29,style=filled,color=black,fillcolor=purple];

139 [label=R1441,style=filled,color=black,fillcolor=purple];

140 [label=X122,style=filled,color=black,fillcolor=purple];

141 [label=R1909,style=filled,color=black,fillcolor=purple];

142 [label=R1390,style=filled,color=black,fillcolor=purple];

143 [label=R1505,style=filled,color=black,fillcolor=purple];

144 [label=X189,style=filled,color=black,fillcolor=purple];

145 [label=W148,style=filled,color=black,fillcolor=red];

146 [label=SP21,style=filled,color=black,fillcolor=red];

147 [label=CCDC5079,style=filled,color=black,fillcolor=red];

148 [label=XDR1219,style=filled,color=black,fillcolor=red];

149 [label=n210,style=filled,color=black,fillcolor=yellow];

150 [label=T85,style=filled,color=black,fillcolor=red];

151 [label=CCDC5180,style=filled,color=black,fillcolor=red];

152 [label=BT2,style=filled,color=black,fillcolor=red];

153 [label=HKBS1,style=filled,color=black,fillcolor=red];

154 [label=WX1,style=filled,color=black,fillcolor=red];

155 [label=WX3,style=filled,color=black,fillcolor=red];

156 [label=BT1,style=filled,color=black,fillcolor=red];

157 [label=PanR0605,style=filled,color=black,fillcolor=blue];

158 [label=HN878,style=filled,color=black,fillcolor=yellow];

159 [label=PanR0606,style=filled,color=black,fillcolor=blue];

160 [label=NCGM2209,style=filled,color=black,fillcolor=red];

161 [label=XDR1221,style=filled,color=black,fillcolor=red];

162 [label=OMV02005,style=filled,color=black,fillcolor=red];

163 [label=CTRI4,style=filled,color=black,fillcolor=red];

164 [label=X156,style=filled,color=black,fillcolor=purple];

165 [label=X28,style=filled,color=black,fillcolor=purple];

166 [label=X132,style=filled,color=black,fillcolor=purple];

167 [label=X85,style=filled,color=black,fillcolor=purple];

168 [label=R1207,style=filled,color=black,fillcolor=purple];

169 [label=R1746,style=filled,color=black,fillcolor=purple];

170 [label=n021987,style=filled,color=black,fillcolor=gray];

171 [label=CASNITR204,style=filled,color=black,fillcolor=red];

172 [label=HaarlemNITR202,style=filled,color=black,fillcolor=red];

173 [label=n173,style=filled,color=black,fillcolor=white];

174 [label=n174,style=filled,color=black,fillcolor=white];

175 [label=n175,style=filled,color=black,fillcolor=white];

176 [label=n176,style=filled,color=black,fillcolor=white];

177 [label=n177,style=filled,color=black,fillcolor=white];

178 [label=n178,style=filled,color=black,fillcolor=white];

179 [label=n179,style=filled,color=black,fillcolor=white];

180 [label=n180,style=filled,color=black,fillcolor=white];

181 [label=n181,style=filled,color=black,fillcolor=white];

182 [label=n182,style=filled,color=black,fillcolor=white];

183 [label=n183,style=filled,color=black,fillcolor=white];

184 [label=n184,style=filled,color=black,fillcolor=white];

185 [label=n185,style=filled,color=black,fillcolor=white];

186 [label=n186,style=filled,color=black,fillcolor=white];

187 [label=n187,style=filled,color=black,fillcolor=white];

188 [label=n188,style=filled,color=black,fillcolor=white];

189 [label=n189,style=filled,color=black,fillcolor=white];

190 [label=n190,style=filled,color=black,fillcolor=white];

191 [label=n191,style=filled,color=black,fillcolor=white];

192 [label=n192,style=filled,color=black,fillcolor=white];

193 [label=n193,style=filled,color=black,fillcolor=white];

194 [label=n194,style=filled,color=black,fillcolor=white];

195 [label=n195,style=filled,color=black,fillcolor=white];

196 [label=n196,style=filled,color=black,fillcolor=white];

197 [label=n197,style=filled,color=black,fillcolor=white];

198 [label=n198,style=filled,color=black,fillcolor=white];

199 [label=n199,style=filled,color=black,fillcolor=white];

200 [label=n200,style=filled,color=black,fillcolor=white];

201 [label=n201,style=filled,color=black,fillcolor=white];

202 [label=n202,style=filled,color=black,fillcolor=white];

203 [label=n203,style=filled,color=black,fillcolor=white];

204 [label=n204,style=filled,color=black,fillcolor=white];

205 [label=n205,style=filled,color=black,fillcolor=white];

206 [label=n206,style=filled,color=black,fillcolor=white];

207 [label=n207,style=filled,color=black,fillcolor=white];

208 [label=n208,style=filled,color=black,fillcolor=white];

209 [label=n209,style=filled,color=black,fillcolor=white];

210 [label=n210,style=filled,color=black,fillcolor=white];

211 [label=n211,style=filled,color=black,fillcolor=white];

212 [label=n212,style=filled,color=black,fillcolor=white];

213 [label=n213,style=filled,color=black,fillcolor=white];

214 [label=n214,style=filled,color=black,fillcolor=white];

215 [label=n215,style=filled,color=black,fillcolor=white];

216 [label=n216,style=filled,color=black,fillcolor=white];

217 [label=n217,style=filled,color=black,fillcolor=white];

218 [label=n218,style=filled,color=black,fillcolor=white];

219 [label=n219,style=filled,color=black,fillcolor=white];

220 [label=n220,style=filled,color=black,fillcolor=white];

221 [label=n221,style=filled,color=black,fillcolor=white];

222 [label=n222,style=filled,color=black,fillcolor=white];

223 [label=n223,style=filled,color=black,fillcolor=white];

224 [label=n224,style=filled,color=black,fillcolor=white];

225 [label=n225,style=filled,color=black,fillcolor=white];

226 [label=n226,style=filled,color=black,fillcolor=white];

227 [label=n227,style=filled,color=black,fillcolor=white];

228 [label=n228,style=filled,color=black,fillcolor=white];

229 [label=n229,style=filled,color=black,fillcolor=white];

230 [label=n230,style=filled,color=black,fillcolor=white];

231 [label=n231,style=filled,color=black,fillcolor=white];

232 [label=n232,style=filled,color=black,fillcolor=white];

233 [label=n233,style=filled,color=black,fillcolor=white];

234 [label=n234,style=filled,color=black,fillcolor=white];

235 [label=n235,style=filled,color=black,fillcolor=white];

236 [label=n236,style=filled,color=black,fillcolor=white];

237 [label=n237,style=filled,color=black,fillcolor=white];

238 [label=n238,style=filled,color=black,fillcolor=white];

239 [label=n239,style=filled,color=black,fillcolor=white];

240 [label=n240,style=filled,color=black,fillcolor=white];

241 [label=n241,style=filled,color=black,fillcolor=white];

242 [label=n242,style=filled,color=black,fillcolor=white];

243 [label=n243,style=filled,color=black,fillcolor=white];

244 [label=n244,style=filled,color=black,fillcolor=white];

245 [label=n245,style=filled,color=black,fillcolor=white];

246 [label=n246,style=filled,color=black,fillcolor=white];

247 [label=n247,style=filled,color=black,fillcolor=white];

248 [label=n248,style=filled,color=black,fillcolor=white];

249 [label=n249,style=filled,color=black,fillcolor=white];

250 [label=n250,style=filled,color=black,fillcolor=white];

251 [label=n251,style=filled,color=black,fillcolor=white];

252 [label=n252,style=filled,color=black,fillcolor=white];

253 [label=n253,style=filled,color=black,fillcolor=white];

254 [label=n254,style=filled,color=black,fillcolor=white];

255 [label=n255,style=filled,color=black,fillcolor=white];

256 [label=n256,style=filled,color=black,fillcolor=white];

257 [label=n257,style=filled,color=black,fillcolor=white];

258 [label=n258,style=filled,color=black,fillcolor=white];

259 [label=n259,style=filled,color=black,fillcolor=white];

260 [label=n260,style=filled,color=black,fillcolor=white];

261 [label=n261,style=filled,color=black,fillcolor=white];

262 [label=n262,style=filled,color=black,fillcolor=white];

263 [label=n263,style=filled,color=black,fillcolor=white];

264 [label=n264,style=filled,color=black,fillcolor=white];

265 [label=n265,style=filled,color=black,fillcolor=white];

266 [label=n266,style=filled,color=black,fillcolor=white];

267 [label=n267,style=filled,color=black,fillcolor=white];

268 [label=n268,style=filled,color=black,fillcolor=white];

269 [label=n269,style=filled,color=black,fillcolor=white];

270 [label=n270,style=filled,color=black,fillcolor=white];

271 [label=n271,style=filled,color=black,fillcolor=white];

272 [label=n272,style=filled,color=black,fillcolor=white];

273 [label=n273,style=filled,color=black,fillcolor=white];

274 [label=n274,style=filled,color=black,fillcolor=white];

275 [label=n275,style=filled,color=black,fillcolor=white];

276 [label=n276,style=filled,color=black,fillcolor=white];

277 [label=n277,style=filled,color=black,fillcolor=white];

278 [label=n278,style=filled,color=black,fillcolor=white];

279 [label=n279,style=filled,color=black,fillcolor=white];

280 [label=n280,style=filled,color=black,fillcolor=white];

281 [label=n281,style=filled,color=black,fillcolor=white];

282 [label=n282,style=filled,color=black,fillcolor=white];

283 [label=n283,style=filled,color=black,fillcolor=white];

284 [label=n284,style=filled,color=black,fillcolor=white];

285 [label=n285,style=filled,color=black,fillcolor=white];

286 [label=n286,style=filled,color=black,fillcolor=white];

287 [label=n287,style=filled,color=black,fillcolor=white];

288 [label=n288,style=filled,color=black,fillcolor=white];

289 [label=n289,style=filled,color=black,fillcolor=white];

290 [label=n290,style=filled,color=black,fillcolor=white];

291 [label=n291,style=filled,color=black,fillcolor=white];

292 [label=n292,style=filled,color=black,fillcolor=white];

293 [label=n293,style=filled,color=black,fillcolor=white];

294 [label=n294,style=filled,color=black,fillcolor=white];

295 [label=n295,style=filled,color=black,fillcolor=white];

296 [label=n296,style=filled,color=black,fillcolor=white];

297 [label=n297,style=filled,color=black,fillcolor=white];

203->36;

203->37;

216->57;

216->58;

274->133;

274->134;

211->44;

211->45;

234->82;

234->83;

198->30;

198->31;

207->40;

207->41;

218->60;

218->61;

199->33;

199->34;

213->48;

213->49;

213->50;

213->51;

213->52;

213->53;

213->54;

213->55;

293->147;

293->148;

255->109;

255->110;

243->99;

243->100;

267->122;

267->123;

294->160;

294->161;

228->74;

228->75;

229->77;

229->78;

288->145;

288->146;

269->124;

269->125;

204->38;

204->39;

270->128;

270->129;

223->65;

223->66;

223->67;

223->68;

223->69;

223->70;

258->115;

258->116;

194->21;

194->22;

194->23;

194->24;

194->25;

194->26;

297->166;

297->167;

297->168;

297->169;

191->10;

191->11;

241->95;

241->96;

249->101;

249->102;

262->118;

262->119;

256->111;

256->112;

192->14;

192->15;

287->138;

287->139;

287->140;

287->141;

287->142;

287->143;

287->144;

272->130;

272->131;

239->86;

239->87;

251->103;

251->104;

215->216;

215->59;

273->274;

273->135;

210->211;

210->46;

233->81;

233->234;

197->29;

197->198;

206->207;

206->42;

217->218;

217->62;

212->213;

212->56;

292->293;

292->149;

242->98;

242->243;

227->228;

227->76;

268->269;

268->126;

202->203;

202->204;

222->64;

222->223;

257->114;

257->258;

193->20;

193->194;

296->165;

296->297;

240->241;

240->97;

261->117;

261->262;

254->255;

254->256;

286->137;

286->287;

271->272;

271->132;

238->239;

238->88;

238->89;

238->90;

238->91;

238->92;

238->93;

250->251;

250->105;

209->43;

209->210;

232->233;

232->84;

196->197;

196->32;

214->215;

214->217;

291->292;

291->150;

226->227;

226->229;

266->267;

266->268;

201->35;

201->202;

221->222;

221->71;

190->0;

190->1;

190->2;

190->3;

190->4;

190->5;

190->6;

190->7;

190->8;

190->9;

190->191;

190->12;

190->13;

190->192;

190->16;

190->17;

190->18;

190->19;

190->193;

190->27;

190->28;

295->164;

295->296;

253->254;

253->113;

285->286;

285->288;

237->85;

237->238;

248->249;

248->250;

208->209;

208->47;

195->196;

195->199;

290->291;

290->151;

225->226;

225->79;

265->121;

265->266;

220->63;

220->221;

252->253;

252->257;

236->237;

236->94;

247->248;

247->106;

205->206;

205->208;

189->190;

189->195;

289->290;

289->152;

224->225;

224->80;

264->120;

264->265;

219->220;

219->72;

235->236;

235->240;

246->247;

246->107;

200->201;

200->205;

284->285;

284->289;

263->264;

263->127;

231->232;

231->235;

245->246;

245->108;

188->189;

188->200;

283->284;

283->153;

260->261;

260->263;

230->231;

230->242;

244->245;

244->252;

187->188;

187->212;

282->283;

282->154;

282->155;

259->260;

259->270;

186->187;

186->214;

281->282;

281->156;

185->186;

185->219;

280->281;

280->157;

184->185;

184->73;

279->280;

279->158;

183->184;

183->224;

278->136;

278->279;

182->183;

182->230;

277->278;

277->159;

181->182;

181->244;

276->277;

276->294;

180->181;

180->259;

275->276;

275->162;

179->180;

179->271;

178->179;

178->273;

177->178;

177->275;

176->177;

176->163;

175->176;

175->295;

174->175;

174->170;

173->174;

173->171;

173->172;

}

