%Rifampicin
>Rv0667
65	V	F
300	A	V
409	Q	H
423	E	A
424	F	S,L
426	G	S,D,G
427	T	A,H,S,P
428	S	Q,R,T
429	Q	H,K
430	L	P,R,V
431	S	I,R,T,G
432	Q	E,F,H,K,*,L,N,Q,P,R
433	F	F,R,L,V
434	M	I,M,F
435	D	A,E,D,G,F,H,N,V,Y
436	Q	Q,H,L
437	N	Y,I,T,H,D
438	N	K,N
440	L	P,M,L
441	S	L,W
442	G	A,W
443	L	S,W
444	T	I,P
445	H	C,D,G,F,L,N,Q,P,S,R,T,Y
446	K	Q,K,N
447	R	H,P
450	S	C,F,L,Q,W,Y
452	L	P
454	P	H,S
457	L	P,*
460	E	G
464	L	M
472	S	A
480	I	T,V
490	L	V
541	S	A
552	R	C
591	E	D

%Capreomycin
>Rv1694
3	R	*
14	R	W
18	R	*
22	Q	*
67	A	E
69	K	E
91	A	E
118	L	P
128	V	E
150	L	P
183	P	L
184	Q	*
185	F	L
236	N	K
238	E	K
>Rvnr01
1401	A	G
1402	C	A,T
1484	G	T

%Fluoroquinolones
>Rv0006
74	A	S
80	T	A
88	G	A
89	D	N
90	A	G,V
91	S	P
94	D	A,G,F,H,N,V,Y
95	S	T
102	P	H
109	L	V
>Rv0005
457	R	C
458	S	F
472	D	A,H,N
481	G	A
505	D	A
511	T	P
512	E	D,V
515	A	T,V
549	Q	H

%Isoniazid
>Rv2846c
73	I	T
>Rv0340
163	V	I
>Rv2428
-66	G	A
-49	T	G
-46	G	A
-44	T	A
-40	T	C
-39	C	T
-34	T	A
-30	C	T
-20	C	T
-12	C	T
-9	G	A
-6	G	A
-5	G	A
2	P	S
3	L	K
5	T	I
10	F	I
33	D	N
73	D	H
76	E	K
191	L	R
>Rv0342
3	P	A
537	R	H
>Rv1908c
1	V	A,L
2	P	S
11	T	A
12	T	P
17	S	N
19	G	D
35	N	D
38	W	*
48	L	Q
61	A	T
63	D	E
65	A	*,T
66	A	P
71	I	N
72	D	K,G
73	D	N
74	D	Y,G
84	M	I
85	T	P
88	Q	R
90	W	*
91	W	R
94	D	A,G
96	G	C
99	G	E
104	R	Q,L
106	A	V
107	W	R,*
108	H	Q,E,D
109	A	V
110	A	V
117	D	A
121	G	C,V
125	G	H,C
126	M	I
127	Q	P
128	R	P
138	N	H,S,T,D
139	A	P
140	S	A,R,G,N
141	L	F
142	D	A
143	K	T
148	L	A,R
150	L	A
155	Y	C,S
160	S	L
162	A	T
169	G	A
172	A	T,V
176	M	I
180	T	K,C
186	G	H,V
191	W	*,R
195	E	K
198	W	*
200	K	*
204	W	R
218	N	K
224	Q	E
229	Y	F
230	V	A
234	G	R,E
236	N	T
238	N	K
241	P	P
243	A	S
249	R	C
251	T	M
252	F	L
257	M	I,T
258	N	S
262	T	R
264	A	T
275	T	A,P,S
279	G	D
280	P	H
281	A	V
285	G	D
289	E	*,D
291	A	P
295	Q	P
297	G	V
299	G	A,C
300	W	*,G
302	S	R
304	Y	S
305	G	A
307	G	A,R,E
308	T	P
309	G	S,C,D,F
311	D	Y,E,G,F
314	S	T,N
315	S	G,I,L,N,R,T
316	G	S,D
317	I	L
318	G	V
321	W	S,R,*,C,L
324	T	P
328	W	C,S,G,L
331	S	C
334	I	T
335	I	T,V
336	L	R
337	Y	C,F
341	W	S
345	K	T
350	A	S,T
352	Q	*
357	D	H,N
361	A	D
378	L	P
379	A	V
380	T	I
381	D	G
384	L	R
390	T	I,L
393	I	N
394	T	A
397	W	*
409	A	R,D
413	Y	H
414	K	N
418	R	Q,L
419	D	H
424	A	E,V
429	P	S
434	Q	*
444	A	T
449	L	F
454	E	R
457	S	I
462	I	T
463	R	L
477	W	*
484	R	S
485	G	V
488	K	N
490	R	C
491	G	C
502	Q	H
505	W	S,R
515	R	C
525	Q	P
529	N	D
550	A	D
551	A	G
567	F	S
573	D	N
574	A	E,V
587	L	I,P,M
589	P	T
593	G	D
607	E	K
609	M	I
619	L	P
629	G	S
634	L	F
636	A	E
653	L	P
685	G	R
695	D	A
699	G	Q
700	S	P
710	V	A
713	A	P
716	A	P
717	Q	P
727	A	D
728	W	C
735	D	A,D,N
>Rv1772
4	T	A
>Rv3566c
67	G	R
207	G	E
>Rv1854c
13	R	C
18	V	A
110	T	A
239	L	P
268	R	H
>Rv3795
333	Y	H
>Rv0343
83	W	G
>Rv2243
275	S	N
>Rv1483
-92	A	T
-67	G	C
-24	G	T
-17	G	T
-15	C	T
-8	T	A,C,G
-5	T	A
5	A	P
14	V	L
21	T	A
>Rv1484
8	K	N
16	I	T
21	I	T,V
47	I	T
78	V	A
94	S	A,L
95	I	P,T
194	I	T
202	R	G
217	E	D
>Rv2247
229	D	G
>Rv0129c
-63	C	T
-23	A	C
158	G	S
>Rv2245
66	D	N
77	M	I
121	R	K
269	G	S
312	G	S
387	G	D
413	F	L
>Rv1909c
5	S	P
>Rv1592c
-29	G	A
42	P	L
430	V	A

%Moxifloxacin
>Rv0006
74	A	S
80	T	A
88	G	A
89	D	N
90	A	G,V
91	S	P
94	D	A,G,F,H,N,V,Y
95	S	T
102	P	H
109	L	V
>Rv0005
457	R	C
458	S	F
472	D	A,H,N
481	G	A
505	D	A
511	T	P
512	E	D,V
515	A	T,V
549	Q	H

%Para-Aminosalisylic_acid
>Rv2764c
202	T	A
222	R	G

%Amikacin
>Rv1694
3	R	*
14	R	W
18	R	*
22	Q	*
67	A	E
69	K	E
91	A	E
118	L	P
128	V	E
150	L	P
183	P	L
184	Q	*
185	F	L
236	N	K
238	E	K
>Rvnr01
1401	A	G
1402	C	A,T
1484	G	T

%Pyrazinamide
>Rv2043c
-12	T	G
-11	A	C,G
-7	T	C
1	M	I,*,T
3	A	P,E
4	L	S,W
5	I	S
7	V	I,D,G,F
8	D	Y,E,G
9	V	A,S,L,G
10	Q	P,K,*,R
12	D	A,N
13	F	S
14	C	Y,H,R
17	G	*,D,V
19	L	P,R
21	V	G
23	G	V
25	A	E
26	A	G
28	A	*,D
34	Y	S,*
35	L	P,R,*
37	E	*
41	Y	H,*
43	H	P
45	V	G
46	A	P,*,E,V
47	T	A,P,S
49	D	A,H,G,V
51	H	Q,P,R,Y,N
53	D	A,*,N
54	P	*,L,T
57	H	Y,P,D,L
58	F	*,L
59	S	P
61	T	P
62	P	H,R,L
63	D	H,G
64	Y	*,D
66	S	P
67	S	P
68	W	R,*,S,G,L
69	P	R,L
71	H	Y,*,R,E,D
72	C	Y,*,R,W
75	M	T
76	T	I,P
78	G	D
79	A	*,G
80	F	*,V
82	H	Y,R,D,L
85	L	P,R
87	T	M
88	S	*
90	I	S
94	F	P,*
95	Y	*
96	K	Q,*,E,T,N
97	G	S,D
99	Y	*
102	A	*,T,V
103	Y	H,C,*,S
104	S	R,*
107	G	K
114	T	P,*
116	L	R,V
118	N	T
119	W	R,*,C
120	L	P
121	R	P
125	V	D,G
128	V	*,G
130	V	*,G
132	G	S,*,D
133	I	T,N
134	A	*,V
135	T	P,*
136	D	Y,H,*,G,N
137	H	P,R
138	C	Y,S,*
139	V	A,*,M,L,G
140	R	S,*
141	Q	P,*
142	T	A,P,K,*,M
146	A	T,V
148	R	S,*
153	T	N
154	R	G
155	V	A,*,G
159	L	P,R
160	T	P,*
161	A	P
162	G	D
168	T	N
171	A	P,*,E,T,V
172	L	A,P,*
175	M	V
179	S	R
180	V	F
181	E	D
182	L	S
185	S	I,T

%Ethionamide
>Rv1483
-17	G	T
-15	C	T
>Rv1484
94	S	A
95	I	P
>Rv3854c
43	G	C,S
51	P	L
55	D	A
58	D	A
84	Y	D
186	T	K
223	E	K
246	Q	*
338	I	S
342	T	K
381	A	P
385	G	D
392	T	A
413	G	D
463	R	S

%Ethambutol
>Rv0341
-89	C	T
47	A	T
>Rv0340
173	T	M
>Rv0343
248	P	A
351	Q	*
>Rv0342
308	G	R
501	S	W
>Rv3793
5	G	S
244	A	T
247	A	P
251	L	R
254	A	G
270	T	I
272	G	S
285	H	Y
287	V	F
288	G	W,V
296	Y	H,S
297	I	T,L
300	M	R
302	R	G
303	V	G
307	A	T
308	G	D
309	Y	N
310	M	K
325	G	S
326	W	R
327	Y	N
394	N	D
738	R	Q
981	V	L
>Rv3795
128	V	G
221	A	G
225	A	S
227	V	G
239	L	P
240	D	H
257	R	W
271	A	V
272	S	I,C
274	R	P
282	V	L,G
285	F	L
287	F	C,V
293	I	N
294	G	S
296	N	K
297	S	A,L
299	D	E
306	M	I,V,L,T
309	V	G
310	A	R
311	D	H,R
312	H	R
314	G	A,E
315	Y	L
317	S	T
318	N	H,S,K
319	Y	C,S,N
322	Y	C
328	D	Y,*,G,V
330	F	V
332	W	L
333	Y	H
334	Y	H
347	S	I,T
356	A	S,F,V
357	A	S,V
358	G	V
359	L	I
360	V	M
366	S	P
367	R	P
368	E	Q,A,D
369	V	A,L
370	L	R
371	P	R
374	G	V
375	P	A
377	V	M,G
378	E	A,K
379	A	T,D
380	S	R,D
384	Y	N
388	A	G
395	W	C,R
397	P	Q,T
398	F	Y,H
399	N	H,D
400	N	P,K
401	G	S
405	E	P
406	G	A,P,S,C,D
423	M	I
430	P	L
431	A	T
434	R	G
435	V	G
436	V	G
437	T	A
446	P	H
448	G	V
452	V	L
459	G	A
460	R	C,L
461	P	S
465	I	D
469	R	P
471	R	P
497	Q	K,R
630	T	I
659	A	T
745	G	D
959	D	A
1000	M	R
1024	D	N
>Rv3794
-16	C	T
-12	C	T
-11	C	A
4	D	N
201	A	T
321	G	S
350	G	D
462	A	V
833	D	A
913	P	S
>Rv3124
-16	A	G
>Rv3125
54	P	S
>Rv3126
276	L	R
>Rv3264c
152	D	N
>Rv1267c
7	V	G
32	T	P
53	D	H
110	C	Y
172	L	R
176	A	V
186	R	G
187	A	V
188	S	R
200	E	A
211	L	M
223	D	E
230	R	W
240	G	R
292	L	M
303	L	E
320	L	V
326	S	N
350	V	G
351	H	E
356	R	G
369	I	T
379	Q	R
396	I	T
>Rv3266c
-71	G	T
257	S	P
284	T	K

%Levofloxacin
>Rv0006
74	A	S
80	T	A
88	G	A
89	D	N
90	A	G,V
91	S	P
94	D	A,G,F,H,N,V,Y
95	S	T
102	P	H
109	L	V
>Rv0005
457	R	C
458	S	F
472	D	A,H,N
481	G	A
505	D	A
511	T	P
512	E	D,V
515	A	T,V
549	Q	H

%Kanamycin
>Rv1694
3	R	*
14	R	W
18	R	*
22	Q	*
67	A	E
69	K	E
91	A	E
118	L	P
128	V	E
150	L	P
183	P	L
184	Q	*
185	F	L
236	N	K
238	E	K
>Rvnr01
1401	A	G
1402	C	A,T
1484	G	T

%Streptomycin
>Rv3919c
16	L	R
40	E	*
45	W	C
47	R	Q
55	I	S
67	D	H
70	S	R
71	G	V
75	P	A
92	E	D
103	E	*
125	Q	*
127	Q	P
134	A	E
138	A	E
148	W	R
183	A	E
188	V	G
200	A	E
>Rv0682
9	R	H
40	T	I
41	T	S
43	K	R,T
51	K	N
52	V	G
84	G	V
86	R	P,W
87	V	L
88	K	Q,R,M,T
93	V	M
>Rvnr01
190	G	A
427	G	C,T
462	C	T
492	C	T
513	C	T
514	A	C,T
517	C	T
628	G	C
799	C	T
866	C	G
888	G	A
905	C	A,G
906	A	G
907	A	C,T
908	A	G
1239	T	C
1401	A	G

%Ofloxacin
>Rv0006
74	A	S
80	T	A
88	G	A
89	D	N
90	A	G,V
91	S	P
94	D	A,G,F,H,N,V,Y
95	S	T
102	P	H
109	L	V
>Rv0005
457	R	C
458	S	F
472	D	A,H,N
481	G	A
505	D	A
511	T	P
512	E	D,V
515	A	T,V
549	Q	H

