%mtu_broad
>rpoB
45	P:1377	S:7,A:3,L:9,T:2
92	D:1397	G
163	N:1397	K
167	R:1397	C
168	V:1397	G
172	Q:1397	R
219	R:1397	C
225	R:1397	G
240	E:1397	G
270	D:1397	E
280	P:1397	L
399	T:1389	I:4,A:5
401	Q:1397	R
409	Q:1393	R:5
428	S:1396	R:2
429	Q:1396	P,H
430	L:1386	P:3,R:9
431	S:1397	G
432	Q:1380	P:5,E:2,L,K:5,H:5
434	M:1396	I:2
435	D:1223	H,N:2,A:2,Y:27,G:3,V:140
437	N:1396	H,K
438	N:1397	H
439	P:1397	S
441	S:1392	L:4,*:2
445	H:1240	P:2,Q:2,L:27,Y:53,R:42,D:25,N:7
448	R:1391	Q:7
450	S:627	L:743,*:6,W:22
452	L:1373	V,P:24
480	I:1397	V
481	E:1397	A
482	T:1397	N
483	P:1397	S
494	L:1396	P:2
496	V:1394	G,M:3
503	F:1395	S:3
534	V:1396	G,A
559	A:1395	V:3
563	E:1389	A:9
577	P:1397	A
578	R:1397	H
584	A:1397	D
585	T:1397	A
631	D:1397	G
655	M:1397	T
676	T:1397	A
693	G:1397	D
700	P:1397	L
702	T:1397	I
731	L:1390	P:8
741	L:1397	F
761	E:1397	D
827	R:1395	C:3
832	K:1397	E
835	H:1394	R:3,P
836	G:1397	S
862	L:1396	R:2
871	R:1397	H
874	S:1397	Y
891	K:1395	E:3
896	E:1397	K
920	M:1396	V:2
936	S:1397	R
944	K:1397	E
970	V:1397	A
971	F:1397	L
980	Q:1397	R
1035	I:1397	T
1095	K:1397	R
