Meticillin	SAR0039;SARLGA251_00260
Penicillin		SAR1831;SAR0039;SARLGA251_00260#SAR1830
Oxacillin		SAR0039;SARLGA251_00260
Rifampicin	x
Erythromycin	SAR0050;SAR1735;SAUSA300_pUSA030007;HMPREF0773_2657#SATW20_00430;
Clindamycin		SAR0050;SAR1735;HMPREF0773_2657#SATW20_00430;
Gentamicin		SAA6008_01993
Ciprofloxacin	x
Vancomycin	x
Vancomycin_2	x
Trimethoprim	SATW20_04710#;SAA6008_01970
Co-trimoxazole	SATW20_04710#;SAA6008_01970
Tetracycline	SAHV_0395;SATW20_00660#SAR0139;pKKS627_p3;pKKS825_p5;
Fusidic_acid 	x
Bacitracin	USA300HOU_pUSA300HOUMR0023;SLAG_02871

