\relax 
\citation{nubel_timescale_2010}
\citation{nubel_timescale_2010}
\citation{nubel_timescale_2010}
\citation{nubel_timescale_2010}
\citation{nubel_timescale_2010}
\citation{nubel_timescale_2010}
\citation{nubel_timescale_2010}
\citation{nubel_timescale_2010}
\citation{nubel_timescale_2010}
\citation{nubel_timescale_2010}
\citation{nubel_timescale_2010}
\citation{nubel_timescale_2010}
\citation{nubel_timescale_2010}
\citation{nubel_timescale_2010}
\citation{nubel_timescale_2010}
\citation{nubel_timescale_2010}
\citation{nubel_timescale_2010}
\citation{mcdonald_draft_2013}
\citation{stegger_genome_2012}
\citation{yamamoto_comparative_2012}
\citation{yamamoto_comparative_2012}
\citation{yamamoto_comparative_2012}
\citation{yamamoto_comparative_2012}
\citation{robinson_re-emergence_2005}
\citation{nicola_characterization_1998}
\citation{nicola_characterization_1998}
\citation{nicola_characterization_1998}
\citation{nicola_characterization_1998}
\citation{nicola_characterization_1998}
\citation{nicola_characterization_1998}
\citation{nicola_characterization_1998}
\citation{nicola_characterization_1998}
\citation{nicola_characterization_1998}
\citation{nicola_characterization_1998}
\citation{nicola_characterization_1998}
\citation{nicola_characterization_1998}
\citation{fraunholz_complete_2013}
\citation{robinson_re-emergence_2005}
\citation{peleg_whole_2012}
\citation{peleg_whole_2012}
\citation{peleg_whole_2012}
\citation{peleg_whole_2012}
\citation{sakoulas_induction_2006}
\citation{peleg_whole_2012}
\citation{peleg_whole_2012}
\citation{peleg_whole_2012}
\citation{peleg_whole_2012}
\citation{peleg_whole_2012}
\citation{peleg_whole_2012}
\citation{peleg_whole_2012}
\citation{peleg_whole_2012}
\citation{peleg_whole_2012}
\citation{peleg_whole_2012}
\citation{pillai_development_2009}
\citation{pillai_development_2009}
\citation{pillai_development_2009}
\citation{peleg_whole_2012}
\citation{peleg_whole_2012}
\citation{peleg_whole_2012}
\citation{peleg_whole_2012}
\citation{peleg_whole_2012}
\citation{peleg_whole_2012}
\citation{peleg_whole_2012}
\citation{peleg_whole_2012}
\citation{peleg_whole_2012}
\citation{peleg_whole_2012}
\citation{costa_complete_2013}
\citation{robinson_re-emergence_2005}
\citation{robinson_re-emergence_2005}
\citation{stegger_genome_2013}
\citation{carroll_draft_2013}
\citation{carroll_draft_2013}
\citation{carroll_draft_2013}
\citation{carroll_draft_2013}
\citation{carroll_draft_2013}
\citation{carroll_draft_2013}
\citation{carroll_draft_2013}
\citation{carroll_draft_2013}
\citation{carroll_draft_2013}
\citation{carroll_draft_2013}
\citation{carroll_draft_2013}
\citation{carroll_draft_2013}
\citation{carroll_draft_2013}
\citation{rolain_genomic_2009}
\citation{rolain_genomic_2009}
\citation{rolain_genomic_2009}
\citation{rolain_genomic_2009}
\citation{rolain_genomic_2009}
\citation{rolain_genomic_2009}
\citation{rolain_genomic_2009}
\citation{rolain_genomic_2009}
\citation{chen_complete_2013}
\citation{chen_complete_2013}
\citation{chen_complete_2013}
\citation{eyyunni_network_2011}
\citation{gill_insights_2005}
\citation{eyyunni_network_2011}
\citation{eyyunni_network_2011}
\citation{eyyunni_network_2011}
\citation{eyyunni_network_2011}
\citation{eyyunni_network_2011}
\citation{eyyunni_network_2011}
\citation{eyyunni_network_2011}
\citation{eyyunni_network_2011}
\citation{eyyunni_network_2011}
\citation{eyyunni_network_2011}
\citation{eyyunni_network_2011}
\citation{eyyunni_network_2011}
\citation{eyyunni_network_2011}
\citation{robinson_re-emergence_2005}
\citation{crisostomo_evolution_2001}
\citation{crisostomo_evolution_2001}
\citation{crisostomo_evolution_2001}
\citation{lindqvist_detection_2011}
\citation{lindqvist_detection_2011}
\citation{lindqvist_detection_2011}
\citation{lindqvist_detection_2011}
\citation{broad_database}
\citation{robinson_re-emergence_2005}
\citation{harastani_genetic_2013}
\citation{harastani_genetic_2013}
\citation{harastani_genetic_2013}
\citation{harastani_genetic_2013}
\citation{harastani_genetic_2013}
\citation{harastani_genetic_2013}
\citation{harastani_genetic_2013}
\citation{harastani_genetic_2013}
\citation{mwangi_tracking_2007}
\citation{mwangi_tracking_2007}
\citation{mwangi_tracking_2007}
\citation{sieradzki_evolution_2003}
\citation{sieradzki_evolution_2003}
\citation{mwangi_tracking_2007}
\citation{mwangi_tracking_2007}
\citation{mwangi_tracking_2007}
\citation{sieradzki_evolution_2003}
\citation{mwangi_tracking_2007}
\citation{mwangi_tracking_2007}
\citation{mwangi_tracking_2007}
\citation{mwangi_tracking_2007}
\citation{mwangi_tracking_2007}
\citation{sieradzki_evolution_2003}
\citation{sieradzki_evolution_2003}
\citation{mwangi_tracking_2007}
\citation{mwangi_tracking_2007}
\citation{mwangi_tracking_2007}
\citation{sieradzki_evolution_2003}
\citation{mwangi_tracking_2007}
\citation{howden_isolates_2006}
\citation{howden_genomic_2008}
\citation{howden_complete_2010}
\citation{howden_genomic_2008}
\citation{howden_genomic_2008}
\citation{howden_isolates_2006}
\citation{howden_genomic_2008}
\citation{howden_genomic_2008}
\citation{howden_isolates_2006}
\citation{howden_genomic_2008}
\citation{howden_isolates_2006}
\citation{howden_genomic_2008}
\citation{howden_complete_2010}
\citation{howden_genomic_2008}
\citation{howden_genomic_2008}
\citation{howden_isolates_2006}
\citation{howden_genomic_2008}
\citation{howden_genomic_2008}
\citation{howden_genomic_2008}
\citation{howden_isolates_2006}
\citation{chua_complete_2010}
\citation{chua_complete_2010}
\citation{chua_complete_2010}
\citation{chua_complete_2010}
\citation{chua_complete_2010}
\citation{chua_complete_2010}
\citation{chua_complete_2010}
\citation{chua_complete_2010}
\citation{garciaalvarez_meticillinresistant_2011}
\citation{garciaalvarez_meticillinresistant_2011}
\citation{garciaalvarez_meticillinresistant_2011}
\citation{garciaalvarez_meticillinresistant_2011}
\citation{garciaalvarez_meticillinresistant_2011}
\citation{garciaalvarez_meticillinresistant_2011}
\citation{garciaalvarez_meticillinresistant_2011}
\citation{garciaalvarez_meticillinresistant_2011}
\citation{garciaalvarez_meticillinresistant_2011}
\citation{garciaalvarez_meticillinresistant_2011}
\citation{garciaalvarez_meticillinresistant_2011}
\citation{garciaalvarez_meticillinresistant_2011}
\citation{garciaalvarez_meticillinresistant_2011}
\citation{garciaalvarez_meticillinresistant_2011}
\citation{garciaalvarez_meticillinresistant_2011}
\citation{garciaalvarez_meticillinresistant_2011}
\citation{garciaalvarez_meticillinresistant_2011}
\citation{larner-svensson_complete_2013}
\citation{robinson_re-emergence_2005}
\citation{harro_draft_2013}
\citation{robinson_re-emergence_2005}
\citation{robinson_re-emergence_2005}
\citation{robinson_re-emergence_2005}
\citation{eyyunni_network_2011}
\citation{lin_proinflammatory_2011}
\citation{dickgiesser_toxic_1987}
\citation{eyyunni_network_2011}
\citation{dickgiesser_toxic_1987}
\citation{eyyunni_network_2011}
\citation{dickgiesser_toxic_1987}
\citation{eyyunni_network_2011}
\citation{eyyunni_network_2011}
\citation{eyyunni_network_2011}
\citation{dickgiesser_toxic_1987}
\citation{eyyunni_network_2011}
\citation{eyyunni_network_2011}
\citation{eyyunni_network_2011}
\citation{eyyunni_network_2011}
\citation{dickgiesser_toxic_1987}
\citation{eyyunni_network_2011}
\citation{eyyunni_network_2011}
\citation{eyyunni_network_2011}
\citation{wyke_synthesis_1982}
\citation{renzoni_transcriptomic_2006}
\citation{renzoni_transcriptomic_2006}
\citation{renzoni_transcriptomic_2006}
\citation{renzoni_transcriptomic_2006}
\citation{renzoni_transcriptomic_2006}
\citation{renzoni_transcriptomic_2006}
\citation{renzoni_transcriptomic_2006}
\citation{renzoni_transcriptomic_2006}
\citation{renzoni_transcriptomic_2006}
\citation{renzoni_transcriptomic_2006}
\citation{renzoni_transcriptomic_2006}
\citation{renzoni_transcriptomic_2006}
\citation{renzoni_transcriptomic_2006}
\citation{renzoni_transcriptomic_2006}
\citation{snyder_patric:_2007}
\citation{snyder_patric:_2007}
\citation{snyder_patric:_2007}
\citation{snyder_patric:_2007}
\citation{snyder_patric:_2007}
\citation{snyder_patric:_2007}
\citation{snyder_patric:_2007}
\citation{snyder_patric:_2007}
\citation{snyder_patric:_2007}
\citation{snyder_patric:_2007}
\citation{snyder_patric:_2007}
\citation{snyder_patric:_2007}
\citation{snyder_patric:_2007}
\citation{snyder_patric:_2007}
\citation{snyder_patric:_2007}
\citation{snyder_patric:_2007}
\citation{eyyunni_network_2011}
\citation{holden_complete_2004}
\citation{holden_complete_2004}
\citation{eyyunni_network_2011}
\citation{holden_complete_2004}
\citation{eyyunni_network_2011}
\citation{holden_complete_2004}
\citation{eyyunni_network_2011}
\citation{eyyunni_network_2011}
\citation{holden_complete_2004}
\citation{eyyunni_network_2011}
\citation{eyyunni_network_2011}
\citation{holden_complete_2004}
\citation{eyyunni_network_2011}
\citation{holden_complete_2004}
\citation{eyyunni_network_2011}
\citation{holden_complete_2004}
\citation{eyyunni_network_2011}
\citation{holden_complete_2004}
\citation{eyyunni_network_2011}
\citation{eyyunni_network_2011}
\citation{eyyunni_network_2011}
\citation{holden_complete_2004}
\citation{holt_very_2011}
\citation{eyyunni_network_2011}
\citation{holden_complete_2004}
\citation{holden_complete_2004}
\citation{eyyunni_network_2011}
\citation{holden_complete_2004}
\citation{eyyunni_network_2011}
\citation{holden_complete_2004}
\citation{eyyunni_network_2011}
\citation{eyyunni_network_2011}
\citation{eyyunni_network_2011}
\citation{holden_complete_2004}
\citation{eyyunni_network_2011}
\citation{holden_complete_2004}
\citation{eyyunni_network_2011}
\citation{holden_complete_2004}
\citation{eyyunni_network_2011}
\citation{holden_complete_2004}
\citation{eyyunni_network_2011}
\citation{holden_complete_2004}
\citation{eyyunni_network_2011}
\citation{eyyunni_network_2011}
\citation{eyyunni_network_2011}
\citation{holden_complete_2004}
\citation{holden_complete_2004}
\citation{eyyunni_network_2011}
\citation{laplante_activities_2008}
\citation{eyyunni_network_2011}
\citation{eyyunni_network_2011}
\citation{eyyunni_network_2011}
\citation{eyyunni_network_2011}
\citation{laplante_activities_2008}
\citation{laplante_activities_2008}
\citation{eyyunni_network_2011}
\citation{eyyunni_network_2011}
\citation{eyyunni_network_2011}
\citation{laplante_activities_2008}
\citation{eyyunni_network_2011}
\citation{laplante_activities_2008}
\citation{friedman_genetic_2006}
\citation{eyyunni_network_2011}
\citation{eyyunni_network_2011}
\citation{laplante_activities_2008}
\citation{eyyunni_network_2011}
\citation{laplante_activities_2008}
\citation{eyyunni_network_2011}
\citation{eyyunni_network_2011}
\citation{laplante_activities_2008}
\citation{eyyunni_network_2011}
\citation{eyyunni_network_2011}
\citation{laplante_activities_2008}
\citation{neoh_mutated_2008}
\citation{tenover_characterization_1998}
\citation{kuroda_identification_2000}
\citation{hanaki_activated_1998}
\citation{neoh_mutated_2008}
\citation{tenover_characterization_1998}
\citation{tenover_characterization_1998}
\citation{tenover_characterization_1998}
\citation{tenover_characterization_1998}
\citation{tenover_characterization_1998}
\citation{neoh_mutated_2008}
\citation{tenover_characterization_1998}
\citation{crossley_staphylococci_2010}
\citation{tenover_characterization_1998}
\citation{tenover_characterization_1998}
\citation{tenover_characterization_1998}
\citation{neoh_mutated_2008}
\citation{crossley_staphylococci_2010}
\citation{crossley_staphylococci_2010}
\citation{tenover_characterization_1998}
\citation{neoh_mutated_2008}
\citation{crossley_staphylococci_2010}
\citation{tenover_characterization_1998}
\citation{tenover_characterization_1998}
\citation{tenover_characterization_1998}
\citation{eyyunni_network_2011}
\citation{cui_contribution_2009}
\citation{kuroda_identification_2000}
\citation{brackman_quorum_2011}
\citation{hershberger_evaluation_1999}
\citation{meehl_interaction_2007}
\citation{hanaki_activated_1998}
\citation{tenover_characterization_1998}
\citation{neoh_mutated_2008}
\citation{kuroda_whole_2001}
\citation{cui_contribution_2009}
\citation{tenover_characterization_1998}
\citation{hershberger_evaluation_1999}
\citation{cui_contribution_2009}
\citation{eyyunni_network_2011}
\citation{meehl_interaction_2007}
\citation{tenover_characterization_1998}
\citation{eyyunni_network_2011}
\citation{meehl_interaction_2007}
\citation{cui_contribution_2009}
\citation{tenover_characterization_1998}
\citation{brackman_quorum_2011}
\citation{cui_contribution_2009}
\citation{tenover_characterization_1998}
\citation{meehl_interaction_2007}
\citation{cui_contribution_2009}
\citation{eyyunni_network_2011}
\citation{tenover_characterization_1998}
\citation{meehl_interaction_2007}
\citation{neoh_mutated_2008}
\citation{cui_contribution_2009}
\citation{tenover_characterization_1998}
\citation{hershberger_evaluation_1999}
\citation{eyyunni_network_2011}
\citation{meehl_interaction_2007}
\citation{cui_contribution_2009}
\citation{cui_contribution_2009}
\citation{tenover_characterization_1998}
\citation{tenover_characterization_1998}
\citation{hershberger_evaluation_1999}
\citation{eyyunni_network_2011}
\citation{meehl_interaction_2007}
\citation{tenover_characterization_1998}
\citation{oneill_insertional_2002}
\citation{hershberger_evaluation_1999}
\citation{meehl_interaction_2007}
\citation{cui_contribution_2009}
\citation{neoh_mutated_2008}
\citation{meehl_interaction_2007}
\citation{meehl_interaction_2007}
\citation{cui_contribution_2009}
\citation{tenover_characterization_1998}
\citation{eyyunni_network_2011}
\citation{hershberger_evaluation_1999}
\citation{cui_contribution_2009}
\citation{meehl_interaction_2007}
\citation{cui_contribution_2009}
\citation{meehl_interaction_2007}
\citation{oneill_insertional_2002}
\citation{cui_contribution_2009}
\citation{meehl_interaction_2007}
\citation{cui_contribution_2009}
\citation{cui_contribution_2009}
\citation{cui_contribution_2009}
\citation{tenover_characterization_1998}
\citation{neoh_mutated_2008}
\citation{eyyunni_network_2011}
\citation{hershberger_evaluation_1999}
\citation{meehl_interaction_2007}
\citation{oneill_insertional_2002}
\citation{cui_contribution_2009}
\citation{crossley_staphylococci_2010}
\citation{eyyunni_network_2011}
\citation{meehl_interaction_2007}
\citation{hershberger_evaluation_1999}
\citation{cui_contribution_2009}
\citation{tenover_characterization_1998}
\citation{meehl_interaction_2007}
\citation{cui_contribution_2009}
\citation{eyyunni_network_2011}
\citation{tenover_characterization_1998}
\citation{cui_contribution_2009}
\citation{meehl_interaction_2007}
\citation{meehl_interaction_2007}
\citation{oneill_insertional_2002}
\citation{cui_contribution_2009}
\citation{cui_contribution_2009}
\citation{hershberger_evaluation_1999}
\citation{eyyunni_network_2011}
\citation{meehl_interaction_2007}
\citation{meehl_interaction_2007}
\citation{cui_contribution_2009}
\citation{hershberger_evaluation_1999}
\citation{cui_contribution_2009}
\citation{meehl_interaction_2007}
\citation{cui_contribution_2009}
\citation{meehl_interaction_2007}
\citation{cui_contribution_2009}
\citation{kuroda_identification_2000}
\citation{cui_contribution_2009}
\citation{cui_contribution_2009}
\citation{cui_contribution_2009}
\citation{cui_contribution_2009}
\citation{cui_contribution_2009}
\citation{cui_contribution_2009}
\citation{cui_contribution_2009}
\citation{cui_contribution_2009}
\citation{cui_contribution_2009}
\citation{cui_contribution_2009}
\citation{cui_contribution_2009}
\citation{cui_contribution_2009}
\citation{cui_contribution_2009}
\citation{cui_contribution_2009}
\citation{cui_contribution_2009}
\citation{cui_contribution_2009}
\citation{cui_contribution_2009}
\citation{cui_contribution_2009}
\citation{cui_contribution_2009}
\citation{cui_contribution_2009}
\citation{cui_contribution_2009}
\citation{cui_contribution_2009}
\citation{cui_contribution_2009}
\citation{cui_contribution_2009}
\citation{cui_contribution_2009}
\citation{neoh_mutated_2008}
\citation{kuroda_two-component_2003}
\citation{eyyunni_network_2011}
\citation{kuroda_whole_2001}
\citation{kuroda_whole_2001}
\citation{beltramini_modulation_2009}
\citation{eyyunni_network_2011}
\citation{eyyunni_network_2011}
\citation{beltramini_modulation_2009}
\citation{beltramini_modulation_2009}
\citation{eyyunni_network_2011}
\citation{eyyunni_network_2011}
\citation{beltramini_modulation_2009}
\citation{kuroda_two-component_2003}
\citation{neoh_mutated_2008}
\citation{eyyunni_network_2011}
\citation{beltramini_modulation_2009}
\citation{crossley_staphylococci_2010}
\citation{beltramini_modulation_2009}
\citation{eyyunni_network_2011}
\citation{beltramini_modulation_2009}
\citation{neoh_mutated_2008}
\citation{kuroda_two-component_2003}
\citation{eyyunni_network_2011}
\citation{beltramini_modulation_2009}
\citation{kuroda_two-component_2003}
\citation{beltramini_modulation_2009}
\citation{beltramini_modulation_2009}
\citation{beltramini_modulation_2009}
\citation{kuroda_two-component_2003}
\citation{eyyunni_network_2011}
\citation{neoh_mutated_2008}
\citation{beltramini_modulation_2009}
\citation{kuroda_two-component_2003}
\citation{beltramini_modulation_2009}
\citation{eyyunni_network_2011}
\citation{beltramini_modulation_2009}
\citation{eyyunni_network_2011}
\citation{beltramini_modulation_2009}
\citation{beltramini_modulation_2009}
\citation{eyyunni_network_2011}
\citation{beltramini_modulation_2009}
\citation{beltramini_modulation_2009}
\citation{kuroda_two-component_2003}
\citation{beltramini_modulation_2009}
\citation{beltramini_modulation_2009}
\citation{eyyunni_network_2011}
\citation{kuroda_two-component_2003}
\citation{beltramini_modulation_2009}
\citation{eyyunni_network_2011}
\citation{xue_sequence_2011}
\citation{oliva_anti-staphylococcal_2004}
\citation{mcaleese_analysis_2003}
\citation{oliva_anti-staphylococcal_2004}
\citation{eyyunni_network_2011}
\citation{eyyunni_network_2011}
\citation{eyyunni_network_2011}
\citation{eyyunni_network_2011}
\citation{eyyunni_network_2011}
\citation{eyyunni_network_2011}
\citation{oliva_anti-staphylococcal_2004}
\citation{oneill_insertional_2002}
\citation{eyyunni_network_2011}
\citation{oliva_anti-staphylococcal_2004}
\citation{oneill_insertional_2002}
\citation{eyyunni_network_2011}
\citation{oliva_anti-staphylococcal_2004}
\citation{oneill_insertional_2002}
\citation{oliva_anti-staphylococcal_2004}
\citation{eyyunni_network_2011}
\citation{eyyunni_network_2011}
\citation{eyyunni_network_2011}
\citation{oneill_insertional_2002}
\citation{oliva_anti-staphylococcal_2004}
\citation{eyyunni_network_2011}
\citation{oliva_anti-staphylococcal_2004}
\citation{oliva_anti-staphylococcal_2004}
\citation{bikels-goshen_staphylococcal_2010}
\citation{pietiainen_transcriptome_2009}
\citation{desbois_wax_2011}
\citation{baba_genome_2008}
\citation{mcaleese_analysis_2003}
\citation{burnside_regulation_2010}
\citation{bikels-goshen_staphylococcal_2010}
\citation{desbois_wax_2011}
\citation{pietiainen_transcriptome_2009}
\citation{pietiainen_transcriptome_2009}
\citation{desbois_wax_2011}
\citation{pietiainen_transcriptome_2009}
\citation{pietiainen_transcriptome_2009}
\citation{burnside_regulation_2010}
\citation{burnside_regulation_2010}
\citation{bikels-goshen_staphylococcal_2010}
\citation{neoh_draft_2013}
\citation{neoh_draft_2013}
\citation{neoh_draft_2013}
\citation{neoh_draft_2013}
\citation{herron-olson_molecular_2007}
\citation{bikels-goshen_staphylococcal_2010}
\citation{lee_phenotypic_1999}
\citation{pucci_direct_2002}
\citation{coleman_susceptibility_1985}
\citation{ferrero_analysis_1995}
\citation{yamada_quinolone_1997}
\citation{daurel_differences_2008}
\citation{daurel_differences_2008}
\citation{ferrero_analysis_1995}
\citation{ferrero_analysis_1995}
\citation{bikels-goshen_staphylococcal_2010}
\citation{lee_phenotypic_1999}
\citation{coleman_susceptibility_1985}
\citation{storrs_genetic_1988}
\citation{storrs_genetic_1988}
\citation{coleman_susceptibility_1985}
\citation{oneill_molecular_2006}
\citation{oneill_insertional_2002}
\citation{lee_phenotypic_1999}
\citation{lee_phenotypic_1999}
\citation{storrs_genetic_1988}
\citation{coleman_susceptibility_1985}
\citation{oneill_insertional_2002}
\citation{coleman_susceptibility_1985}
\citation{ferrero_analysis_1995}
\citation{yamada_quinolone_1997}
\citation{yamada_quinolone_1997}
\citation{ferrero_analysis_1995}
\citation{oneill_insertional_2002}
\citation{coleman_susceptibility_1985}
\citation{storrs_genetic_1988}
\citation{yamada_quinolone_1997}
\citation{oneill_insertional_2002}
\citation{yamada_quinolone_1997}
\citation{ferrero_analysis_1995}
\citation{ferrero_analysis_1995}
\citation{ferrero_analysis_1995}
\citation{yamada_quinolone_1997}
\citation{bikels-goshen_staphylococcal_2010}
\citation{ferrero_analysis_1995}
\citation{ferrero_analysis_1995}
\citation{coleman_susceptibility_1985}
\citation{storrs_genetic_1988}
\citation{coleman_susceptibility_1985}
\citation{storrs_genetic_1988}
\citation{yamada_quinolone_1997}
\citation{dabul_draft_2013}
\citation{dabul_draft_2013}
\citation{dabul_draft_2013}
\citation{dabul_draft_2013}
\citation{dabul_draft_2013}
\citation{dabul_draft_2013}
\citation{dabul_draft_2013}
\citation{dabul_draft_2013}
\citation{dabul_draft_2013}
\citation{dabul_draft_2013}
\citation{dabul_draft_2013}
\citation{chen_characterization_2013}
\citation{chen_characterization_2013}
\citation{ekkelenkamp_endocarditis_2006}
\citation{schijffelen_whole_2010}
\citation{schijffelen_whole_2010}
\citation{schijffelen_whole_2010}
\citation{ekkelenkamp_endocarditis_2006}
\citation{ekkelenkamp_endocarditis_2006}
\citation{smith_methicillinresistant_2009}
\citation{ekkelenkamp_endocarditis_2006}
\citation{smith_methicillinresistant_2009}
\citation{ekkelenkamp_endocarditis_2006}
\citation{li_complete_2011}
\citation{molestina_bei_2010}
\citation{edgeworth_outbreak_2007}
\citation{edgeworth_outbreak_2007}
\citation{edgeworth_outbreak_2007}
\citation{edgeworth_outbreak_2007}
\citation{edgeworth_outbreak_2007}
\citation{edgeworth_outbreak_2007}
\citation{edgeworth_outbreak_2007}
\citation{edgeworth_outbreak_2007}
\citation{edgeworth_outbreak_2007}
\citation{holden_genome_2010}
\citation{edgeworth_outbreak_2007}
\citation{edgeworth_outbreak_2007}
\citation{edgeworth_outbreak_2007}
\citation{edgeworth_outbreak_2007}
\citation{kennedy_complete_2010}
\citation{diep_complete_2006}
\citation{kennedy_complete_2010}
\citation{diep_complete_2006}
\citation{kennedy_complete_2010}
\citation{diep_complete_2006}
\citation{kennedy_complete_2010}
\citation{diep_complete_2006}
\citation{kennedy_complete_2010}
\citation{diep_complete_2006}
\citation{kennedy_complete_2010}
\citation{kennedy_complete_2010}
\citation{kennedy_complete_2010}
\citation{kennedy_complete_2010}
\citation{diep_complete_2006}
\citation{kennedy_complete_2010}
\citation{kennedy_complete_2010}
\citation{suzuki_antimicrobial_2011}
\citation{diep_complete_2006}
\citation{kennedy_complete_2010}
\citation{kennedy_complete_2010}
\citation{kennedy_complete_2010}
\citation{diep_complete_2006}
\citation{kennedy_complete_2010}
\citation{kennedy_complete_2010}
\citation{suzuki_antimicrobial_2011}
\citation{kennedy_complete_2010}
\citation{kennedy_complete_2010}
\citation{kennedy_complete_2010}
\citation{kennedy_complete_2010}
\citation{kennedy_complete_2010}
\citation{kennedy_complete_2010}
\citation{kennedy_complete_2010}
\citation{highlander_subtle_2007}
\citation{highlander_subtle_2007}
\citation{highlander_subtle_2007}
\citation{highlander_subtle_2007}
\citation{highlander_subtle_2007}
\citation{highlander_subtle_2007}
\citation{highlander_subtle_2007}
\citation{highlander_subtle_2007}
\citation{highlander_subtle_2007}
\citation{highlander_subtle_2007}
\citation{highlander_subtle_2007}
\citation{suzuki_antimicrobial_2011}
\citation{highlander_subtle_2007}
\citation{highlander_subtle_2007}
\citation{highlander_subtle_2007}
\citation{highlander_subtle_2007}
\citation{highlander_subtle_2007}
\citation{suzuki_antimicrobial_2011}
\citation{highlander_subtle_2007}
\citation{highlander_subtle_2007}
\citation{highlander_subtle_2007}
\citation{highlander_subtle_2007}
\citation{highlander_subtle_2007}
\citation{highlander_subtle_2007}
\citation{highlander_subtle_2007}
\citation{highlander_subtle_2007}
\citation{highlander_subtle_2007}
\citation{highlander_subtle_2007}
\citation{highlander_subtle_2007}
\citation{highlander_subtle_2007}
\citation{highlander_subtle_2007}
\citation{highlander_subtle_2007}
\citation{highlander_subtle_2007}
\citation{highlander_subtle_2007}
\citation{highlander_subtle_2007}
\citation{highlander_subtle_2007}
\citation{highlander_subtle_2007}
\citation{highlander_subtle_2007}
\citation{highlander_subtle_2007}
\citation{highlander_subtle_2007}
\citation{highlander_subtle_2007}
\citation{highlander_subtle_2007}
\citation{highlander_subtle_2007}
\citation{highlander_subtle_2007}
\citation{highlander_subtle_2007}
\citation{highlander_subtle_2007}
\citation{sass_genome_2012}
\citation{schaaff_elevated_2002}
\citation{sass_genome_2012}
\citation{schaaff_elevated_2002}
\citation{robinson_re-emergence_2005}
\citation{robinson_re-emergence_2005}
\citation{chen_complete_2013}
\citation{chen_complete_2013}
\citation{chen_complete_2013}
\citation{khedkar_draft_2012}
\citation{kos_comparative_2012}
\citation{kos_comparative_2012}
\citation{kos_comparative_2012}
\citation{kos_comparative_2012}
\citation{kos_comparative_2012}
\citation{kos_comparative_2012}
\citation{kos_comparative_2012}
\citation{kos_comparative_2012}
\citation{kos_comparative_2012}
\citation{kos_comparative_2012}
\citation{kos_comparative_2012}
\citation{kos_comparative_2012}
\citation{edgeworth_outbreak_2007}
\citation{schijffelen_whole_2010}
\citation{herron-olson_molecular_2007}
\citation{mwangi_tracking_2007}
\citation{mwangi_tracking_2007}
\bibdata{references}
\bibcite{baba_genome_2008}{1}
\bibcite{beltramini_modulation_2009}{2}
\bibcite{bikels-goshen_staphylococcal_2010}{3}
\bibcite{brackman_quorum_2011}{4}
\bibcite{burnside_regulation_2010}{5}
\bibcite{carroll_draft_2013}{6}
\bibcite{chen_characterization_2013}{7}
\bibcite{chen_complete_2013}{8}
\bibcite{chua_complete_2010}{9}
\bibcite{coleman_susceptibility_1985}{10}
\bibcite{costa_complete_2013}{11}
\bibcite{crisostomo_evolution_2001}{12}
\bibcite{crossley_staphylococci_2010}{13}
\bibcite{cui_contribution_2009}{14}
\bibcite{dabul_draft_2013}{15}
\bibcite{daurel_differences_2008}{16}
\bibcite{desbois_wax_2011}{17}
\bibcite{dickgiesser_toxic_1987}{18}
\bibcite{diep_complete_2006}{19}
\bibcite{edgeworth_outbreak_2007}{20}
\bibcite{ekkelenkamp_endocarditis_2006}{21}
\bibcite{eyyunni_network_2011}{22}
\bibcite{ferrero_analysis_1995}{23}
\bibcite{fraunholz_complete_2013}{24}
\bibcite{friedman_genetic_2006}{25}
\bibcite{garciaalvarez_meticillinresistant_2011}{26}
\bibcite{gill_insights_2005}{27}
\bibcite{hanaki_activated_1998}{28}
\bibcite{harastani_genetic_2013}{29}
\bibcite{harro_draft_2013}{30}
\bibcite{herron-olson_molecular_2007}{31}
\bibcite{hershberger_evaluation_1999}{32}
\bibcite{highlander_subtle_2007}{33}
\bibcite{holden_complete_2004}{34}
\bibcite{holden_genome_2010}{35}
\bibcite{holt_very_2011}{36}
\bibcite{howden_isolates_2006}{37}
\bibcite{howden_complete_2010}{38}
\bibcite{howden_genomic_2008}{39}
\bibcite{kennedy_complete_2010}{40}
\bibcite{khedkar_draft_2012}{41}
\bibcite{kos_comparative_2012}{42}
\bibcite{kuroda_identification_2000}{43}
\bibcite{kuroda_two-component_2003}{44}
\bibcite{kuroda_whole_2001}{45}
\bibcite{laplante_activities_2008}{46}
\bibcite{larner-svensson_complete_2013}{47}
\bibcite{lee_phenotypic_1999}{48}
\bibcite{li_complete_2011}{49}
\bibcite{lin_proinflammatory_2011}{50}
\bibcite{lindqvist_detection_2011}{51}
\bibcite{mcaleese_analysis_2003}{52}
\bibcite{mcdonald_draft_2013}{53}
\bibcite{meehl_interaction_2007}{54}
\bibcite{molestina_bei_2010}{55}
\bibcite{mwangi_tracking_2007}{56}
\bibcite{nubel_timescale_2010}{57}
\bibcite{neoh_mutated_2008}{58}
\bibcite{neoh_draft_2013}{59}
\bibcite{nicola_characterization_1998}{60}
\bibcite{oliva_anti-staphylococcal_2004}{61}
\bibcite{oneill_molecular_2006}{62}
\bibcite{oneill_insertional_2002}{63}
\bibcite{peleg_whole_2012}{64}
\bibcite{pietiainen_transcriptome_2009}{65}
\bibcite{pillai_development_2009}{66}
\bibcite{pucci_direct_2002}{67}
\bibcite{renzoni_transcriptomic_2006}{68}
\bibcite{robinson_re-emergence_2005}{69}
\bibcite{rolain_genomic_2009}{70}
\bibcite{sakoulas_induction_2006}{71}
\bibcite{sass_genome_2012}{72}
\bibcite{schaaff_elevated_2002}{73}
\bibcite{schijffelen_whole_2010}{74}
\bibcite{sieradzki_evolution_2003}{75}
\bibcite{smith_methicillinresistant_2009}{76}
\bibcite{snyder_patric:_2007}{77}
\bibcite{stegger_genome_2013}{78}
\bibcite{stegger_genome_2012}{79}
\bibcite{storrs_genetic_1988}{80}
\bibcite{suzuki_antimicrobial_2011}{81}
\bibcite{tenover_characterization_1998}{82}
\bibcite{wyke_synthesis_1982}{83}
\bibcite{xue_sequence_2011}{84}
\bibcite{yamada_quinolone_1997}{85}
\bibcite{yamamoto_comparative_2012}{86}
\bibstyle{plain}
\@writefile{lot}{\contentsline {table}{\numberline {1}{\ignorespaces \bf  {Complete collected data on drug resistance.}\relax }}{1}}
