\relax 
\citation{osorio_evidence_2013}
\citation{osorio_evidence_2013}
\citation{osorio_evidence_2013}
\citation{osorio_evidence_2013}
\citation{osorio_evidence_2013}
\citation{osorio_evidence_2013}
\citation{osorio_evidence_2013}
\citation{osorio_evidence_2013}
\citation{osorio_evidence_2013}
\citation{osorio_evidence_2013}
\citation{osorio_evidence_2013}
\citation{osorio_evidence_2013}
\citation{osorio_evidence_2013}
\citation{osorio_evidence_2013}
\citation{safi_transfer_2008}
\citation{safi_transfer_2008}
\citation{safi_transfer_2008}
\citation{roetzer_whole_2013}
\citation{roetzer_whole_2013}
\citation{roetzer_whole_2013}
\citation{roetzer_whole_2013}
\citation{roetzer_whole_2013}
\citation{roetzer_whole_2013}
\citation{roetzer_whole_2013}
\citation{roetzer_whole_2013}
\citation{roetzer_whole_2013}
\citation{roetzer_whole_2013}
\citation{roetzer_whole_2013}
\citation{osorio_evidence_2013}
\citation{osorio_evidence_2013}
\citation{osorio_evidence_2013}
\citation{osorio_evidence_2013}
\citation{osorio_evidence_2013}
\citation{osorio_evidence_2013}
\citation{osorio_evidence_2013}
\citation{osorio_evidence_2013}
\citation{osorio_evidence_2013}
\citation{osorio_evidence_2013}
\citation{osorio_evidence_2013}
\citation{osorio_evidence_2013}
\citation{osorio_evidence_2013}
\citation{osorio_evidence_2013}
\citation{osorio_evidence_2013}
\citation{osorio_evidence_2013}
\citation{osorio_evidence_2013}
\citation{osorio_evidence_2013}
\citation{osorio_evidence_2013}
\citation{osorio_evidence_2013}
\citation{tsui_genome_2013}
\citation{tsui_genome_2013}
\citation{tsui_genome_2013}
\citation{tsui_genome_2013}
\citation{tsui_genome_2013}
\citation{tsui_genome_2013}
\citation{tsui_genome_2013}
\citation{tsui_genome_2013}
\citation{tsui_genome_2013}
\citation{tsui_genome_2013}
\citation{tsui_genome_2013}
\citation{tsui_genome_2013}
\citation{tsui_genome_2013}
\citation{tsui_genome_2013}
\citation{tsui_genome_2013}
\citation{tsui_genome_2013}
\citation{tsui_genome_2013}
\citation{tsui_genome_2013}
\citation{tsui_genome_2013}
\citation{tsui_genome_2013}
\citation{sandegren_genomic_2011}
\citation{sandegren_genomic_2011}
\citation{sandegren_genomic_2011}
\citation{sandegren_genomic_2011}
\citation{sandegren_genomic_2011}
\citation{sandegren_genomic_2011}
\citation{sandegren_genomic_2011}
\citation{sandegren_genomic_2011}
\citation{sandegren_genomic_2011}
\citation{sandegren_genomic_2011}
\citation{sandegren_genomic_2011}
\citation{sandegren_genomic_2011}
\citation{sandegren_genomic_2011}
\citation{sandegren_genomic_2011}
\citation{osorio_evidence_2013}
\citation{osorio_evidence_2013}
\citation{osorio_evidence_2013}
\citation{osorio_evidence_2013}
\citation{osorio_evidence_2013}
\citation{osorio_evidence_2013}
\citation{osorio_evidence_2013}
\citation{osorio_evidence_2013}
\citation{osorio_evidence_2013}
\citation{osorio_evidence_2013}
\citation{osorio_evidence_2013}
\citation{osorio_evidence_2013}
\citation{osorio_evidence_2013}
\citation{osorio_evidence_2013}
\citation{osorio_evidence_2013}
\citation{zhang_complete_2011}
\citation{osorio_evidence_2013}
\citation{zhang_complete_2011}
\citation{osorio_evidence_2013}
\citation{zhang_complete_2011}
\citation{osorio_evidence_2013}
\citation{zhang_complete_2011}
\citation{osorio_evidence_2013}
\citation{osorio_evidence_2013}
\citation{osorio_evidence_2013}
\citation{osorio_evidence_2013}
\citation{osorio_evidence_2013}
\citation{osorio_evidence_2013}
\citation{osorio_evidence_2013}
\citation{osorio_evidence_2013}
\citation{osorio_evidence_2013}
\citation{osorio_evidence_2013}
\citation{zhang_complete_2011}
\citation{zhang_complete_2011}
\citation{zhang_complete_2011}
\citation{zhang_complete_2011}
\citation{maus_molecular_2005}
\citation{maus_molecular_2005}
\citation{maus_molecular_2005}
\citation{maus_molecular_2005}
\citation{maus_molecular_2005}
\citation{maus_molecular_2005}
\citation{maus_molecular_2005}
\citation{maus_molecular_2005}
\citation{maus_molecular_2005}
\citation{maus_molecular_2005}
\citation{osorio_evidence_2013}
\citation{osorio_evidence_2013}
\citation{osorio_evidence_2013}
\citation{osorio_evidence_2013}
\citation{osorio_evidence_2013}
\citation{osorio_evidence_2013}
\citation{osorio_evidence_2013}
\citation{osorio_evidence_2013}
\citation{osorio_evidence_2013}
\citation{osorio_evidence_2013}
\citation{osorio_evidence_2013}
\citation{osorio_evidence_2013}
\citation{osorio_evidence_2013}
\citation{osorio_evidence_2013}
\citation{osorio_evidence_2013}
\citation{ilina_comparative_2013}
\citation{osorio_evidence_2013}
\citation{ilina_comparative_2013}
\citation{osorio_evidence_2013}
\citation{ilina_comparative_2013}
\citation{osorio_evidence_2013}
\citation{ilina_comparative_2013}
\citation{osorio_evidence_2013}
\citation{ilina_comparative_2013}
\citation{osorio_evidence_2013}
\citation{osorio_evidence_2013}
\citation{ilina_comparative_2013}
\citation{osorio_evidence_2013}
\citation{ilina_comparative_2013}
\citation{osorio_evidence_2013}
\citation{ilina_comparative_2013}
\citation{osorio_evidence_2013}
\citation{ilina_comparative_2013}
\citation{osorio_evidence_2013}
\citation{osorio_evidence_2013}
\citation{osorio_evidence_2013}
\citation{osorio_evidence_2013}
\citation{ilina_comparative_2013}
\citation{ilina_comparative_2013}
\citation{ilina_comparative_2013}
\citation{ilina_comparative_2013}
\citation{ilina_comparative_2013}
\citation{ilina_comparative_2013}
\citation{ilina_comparative_2013}
\citation{ilina_comparative_2013}
\citation{ilina_comparative_2013}
\citation{vellarikkal_draft_2013-3}
\citation{vellarikkal_draft_2013-3}
\citation{vellarikkal_draft_2013-3}
\citation{vellarikkal_draft_2013-3}
\citation{vellarikkal_draft_2013-3}
\citation{vellarikkal_draft_2013-3}
\citation{osorio_evidence_2013}
\citation{osorio_evidence_2013}
\citation{osorio_evidence_2013}
\citation{osorio_evidence_2013}
\citation{osorio_evidence_2013}
\citation{osorio_evidence_2013}
\citation{osorio_evidence_2013}
\citation{osorio_evidence_2013}
\citation{osorio_evidence_2013}
\citation{osorio_evidence_2013}
\citation{osorio_evidence_2013}
\citation{osorio_evidence_2013}
\citation{osorio_evidence_2013}
\citation{osorio_evidence_2013}
\citation{osorio_evidence_2013}
\citation{ordway_drug-resistant_1995}
\citation{osorio_evidence_2013}
\citation{ordway_drug-resistant_1995}
\citation{osorio_evidence_2013}
\citation{ordway_drug-resistant_1995}
\citation{osorio_evidence_2013}
\citation{ordway_drug-resistant_1995}
\citation{osorio_evidence_2013}
\citation{osorio_evidence_2013}
\citation{ordway_drug-resistant_1995}
\citation{osorio_evidence_2013}
\citation{ordway_drug-resistant_1995}
\citation{osorio_evidence_2013}
\citation{ordway_drug-resistant_1995}
\citation{osorio_evidence_2013}
\citation{ordway_drug-resistant_1995}
\citation{osorio_evidence_2013}
\citation{ordway_drug-resistant_1995}
\citation{osorio_evidence_2013}
\citation{ordway_drug-resistant_1995}
\citation{osorio_evidence_2013}
\citation{osorio_evidence_2013}
\citation{osorio_evidence_2013}
\citation{ordway_drug-resistant_1995}
\citation{lin_draft_2013}
\citation{lin_draft_2013}
\citation{lin_draft_2013}
\citation{lin_draft_2013}
\citation{lin_draft_2013}
\citation{lin_draft_2013}
\citation{lin_draft_2013}
\citation{lin_draft_2013}
\citation{osorio_evidence_2013}
\citation{osorio_evidence_2013}
\citation{osorio_evidence_2013}
\citation{osorio_evidence_2013}
\citation{osorio_evidence_2013}
\citation{osorio_evidence_2013}
\citation{osorio_evidence_2013}
\citation{osorio_evidence_2013}
\citation{osorio_evidence_2013}
\citation{osorio_evidence_2013}
\citation{osorio_evidence_2013}
\citation{osorio_evidence_2013}
\citation{osorio_evidence_2013}
\citation{osorio_evidence_2013}
\citation{lin_draft_2013}
\citation{lin_draft_2013}
\citation{lin_draft_2013}
\citation{lin_draft_2013}
\citation{lin_draft_2013}
\citation{lin_draft_2013}
\citation{lin_draft_2013}
\citation{lin_draft_2013}
\citation{osorio_evidence_2013}
\citation{osorio_evidence_2013}
\citation{osorio_evidence_2013}
\citation{osorio_evidence_2013}
\citation{osorio_evidence_2013}
\citation{osorio_evidence_2013}
\citation{osorio_evidence_2013}
\citation{osorio_evidence_2013}
\citation{osorio_evidence_2013}
\citation{osorio_evidence_2013}
\citation{osorio_evidence_2013}
\citation{osorio_evidence_2013}
\citation{osorio_evidence_2013}
\citation{osorio_evidence_2013}
\citation{osorio_evidence_2013}
\citation{osorio_evidence_2013}
\citation{osorio_evidence_2013}
\citation{osorio_evidence_2013}
\citation{osorio_evidence_2013}
\citation{osorio_evidence_2013}
\citation{osorio_evidence_2013}
\citation{osorio_evidence_2013}
\citation{osorio_evidence_2013}
\citation{osorio_evidence_2013}
\citation{osorio_evidence_2013}
\citation{osorio_evidence_2013}
\citation{osorio_evidence_2013}
\citation{osorio_evidence_2013}
\citation{osorio_evidence_2013}
\citation{osorio_evidence_2013}
\citation{osorio_evidence_2013}
\citation{osorio_evidence_2013}
\citation{osorio_evidence_2013}
\citation{osorio_evidence_2013}
\citation{osorio_evidence_2013}
\citation{osorio_evidence_2013}
\citation{osorio_evidence_2013}
\citation{osorio_evidence_2013}
\citation{osorio_evidence_2013}
\citation{osorio_evidence_2013}
\citation{osorio_evidence_2013}
\citation{osorio_evidence_2013}
\citation{tsui_genome_2013}
\citation{tsui_genome_2013}
\citation{tsui_genome_2013}
\citation{tsui_genome_2013}
\citation{ioerger_non-clonality_2010}
\citation{ioerger_non-clonality_2010}
\citation{ioerger_non-clonality_2010}
\citation{ioerger_non-clonality_2010}
\citation{ioerger_non-clonality_2010}
\citation{ioerger_non-clonality_2010}
\citation{ioerger_non-clonality_2010}
\citation{ioerger_non-clonality_2010}
\citation{ioerger_non-clonality_2010}
\citation{ioerger_non-clonality_2010}
\citation{ioerger_non-clonality_2010}
\citation{ioerger_non-clonality_2010}
\citation{ioerger_non-clonality_2010}
\citation{ioerger_non-clonality_2010}
\citation{osorio_evidence_2013}
\citation{osorio_evidence_2013}
\citation{osorio_evidence_2013}
\citation{osorio_evidence_2013}
\citation{osorio_evidence_2013}
\citation{osorio_evidence_2013}
\citation{osorio_evidence_2013}
\citation{osorio_evidence_2013}
\citation{osorio_evidence_2013}
\citation{osorio_evidence_2013}
\citation{osorio_evidence_2013}
\citation{osorio_evidence_2013}
\citation{osorio_evidence_2013}
\citation{osorio_evidence_2013}
\citation{osorio_evidence_2013}
\citation{osorio_evidence_2013}
\citation{osorio_evidence_2013}
\citation{osorio_evidence_2013}
\citation{osorio_evidence_2013}
\citation{osorio_evidence_2013}
\citation{osorio_evidence_2013}
\citation{ioerger_genome_2009}
\citation{osorio_evidence_2013}
\citation{ioerger_genome_2009}
\citation{osorio_evidence_2013}
\citation{osorio_evidence_2013}
\citation{ioerger_genome_2009}
\citation{osorio_evidence_2013}
\citation{ioerger_genome_2009}
\citation{osorio_evidence_2013}
\citation{ioerger_genome_2009}
\citation{osorio_evidence_2013}
\citation{osorio_evidence_2013}
\citation{osorio_evidence_2013}
\citation{osorio_evidence_2013}
\citation{osorio_evidence_2013}
\citation{osorio_evidence_2013}
\citation{osorio_evidence_2013}
\citation{osorio_evidence_2013}
\citation{osorio_evidence_2013}
\citation{osorio_evidence_2013}
\citation{osorio_evidence_2013}
\citation{osorio_evidence_2013}
\citation{osorio_evidence_2013}
\citation{osorio_evidence_2013}
\citation{osorio_evidence_2013}
\citation{osorio_evidence_2013}
\citation{osorio_evidence_2013}
\citation{osorio_evidence_2013}
\citation{osorio_evidence_2013}
\citation{osorio_evidence_2013}
\citation{osorio_evidence_2013}
\citation{osorio_evidence_2013}
\citation{osorio_evidence_2013}
\citation{osorio_evidence_2013}
\citation{osorio_evidence_2013}
\citation{osorio_evidence_2013}
\citation{osorio_evidence_2013}
\citation{osorio_evidence_2013}
\citation{ioerger_genome_2009}
\citation{ioerger_genome_2009}
\citation{ioerger_genome_2009}
\citation{ioerger_genome_2009}
\citation{ioerger_genome_2009}
\citation{ioerger_genome_2009}
\citation{ioerger_genome_2009}
\citation{ioerger_genome_2009}
\citation{kairov_whole_2013}
\citation{kairov_whole_2013}
\citation{kairov_whole_2013}
\citation{kairov_whole_2013}
\citation{kairov_whole_2013}
\citation{kairov_whole_2013}
\citation{kairov_whole_2013}
\citation{kairov_whole_2013}
\citation{kairov_whole_2013}
\citation{kairov_whole_2013}
\citation{kairov_whole_2013}
\citation{kairov_whole_2013}
\citation{kairov_whole_2013}
\citation{kairov_whole_2013}
\citation{kairov_whole_2013}
\citation{kairov_whole_2013}
\citation{kairov_whole_2013}
\citation{kairov_whole_2013}
\citation{kairov_whole_2013}
\citation{kairov_whole_2013}
\citation{kairov_whole_2013}
\citation{kairov_whole_2013}
\citation{kairov_whole_2013}
\citation{kairov_whole_2013}
\citation{kairov_whole_2013}
\citation{kairov_whole_2013}
\citation{kairov_whole_2013}
\citation{kairov_whole_2013}
\citation{tateishi_whole-genome_2013}
\citation{tateishi_whole-genome_2013}
\citation{vellarikkal_draft_2013-2}
\citation{vellarikkal_draft_2013-2}
\citation{vellarikkal_draft_2013-2}
\citation{vellarikkal_draft_2013-2}
\citation{vellarikkal_draft_2013-2}
\citation{vellarikkal_draft_2013-2}
\citation{vellarikkal_draft_2013-2}
\citation{vellarikkal_draft_2013-2}
\citation{vellarikkal_draft_2013-2}
\citation{vellarikkal_draft_2013-2}
\citation{vellarikkal_draft_2013-2}
\citation{vellarikkal_draft_2013-2}
\citation{vellarikkal_draft_2013-1}
\citation{vellarikkal_draft_2013-1}
\citation{vellarikkal_draft_2013-1}
\citation{vellarikkal_draft_2013-1}
\citation{vellarikkal_draft_2013-1}
\citation{vellarikkal_draft_2013-1}
\citation{vellarikkal_draft_2013-1}
\citation{vellarikkal_draft_2013-1}
\citation{vellarikkal_draft_2013-1}
\citation{vellarikkal_draft_2013-1}
\citation{vellarikkal_draft_2013-1}
\citation{vellarikkal_draft_2013-1}
\citation{vellarikkal_draft_2013}
\citation{vellarikkal_draft_2013}
\citation{vellarikkal_draft_2013}
\citation{vellarikkal_draft_2013}
\citation{vellarikkal_draft_2013}
\citation{vellarikkal_draft_2013}
\citation{vellarikkal_draft_2013}
\citation{vellarikkal_draft_2013}
\citation{vellarikkal_draft_2013}
\citation{vellarikkal_draft_2013}
\citation{vellarikkal_draft_2013}
\citation{vellarikkal_draft_2013}
\citation{lanzas_multidrug-resistant_2013}
\citation{lanzas_multidrug-resistant_2013}
\citation{lanzas_multidrug-resistant_2013}
\citation{lanzas_multidrug-resistant_2013}
\citation{lanzas_multidrug-resistant_2013}
\citation{lanzas_multidrug-resistant_2013}
\citation{lanzas_multidrug-resistant_2013}
\citation{lanzas_multidrug-resistant_2013}
\citation{lanzas_multidrug-resistant_2013}
\citation{lanzas_multidrug-resistant_2013}
\citation{lanzas_multidrug-resistant_2013}
\citation{lanzas_multidrug-resistant_2013}
\citation{lanzas_multidrug-resistant_2013}
\citation{lanzas_multidrug-resistant_2013}
\citation{lanzas_multidrug-resistant_2013}
\citation{lanzas_multidrug-resistant_2013}
\citation{lanzas_multidrug-resistant_2013}
\citation{lanzas_multidrug-resistant_2013}
\citation{lanzas_multidrug-resistant_2013}
\citation{lanzas_multidrug-resistant_2013}
\citation{lanzas_multidrug-resistant_2013}
\citation{lanzas_multidrug-resistant_2013}
\citation{lanzas_multidrug-resistant_2013}
\citation{lanzas_multidrug-resistant_2013}
\citation{lanzas_multidrug-resistant_2013}
\citation{lanzas_multidrug-resistant_2013}
\citation{lanzas_multidrug-resistant_2013}
\citation{lanzas_multidrug-resistant_2013}
\citation{lanzas_multidrug-resistant_2013}
\citation{lanzas_multidrug-resistant_2013}
\citation{lanzas_multidrug-resistant_2013}
\citation{lanzas_multidrug-resistant_2013}
\citation{lanzas_multidrug-resistant_2013}
\citation{lanzas_multidrug-resistant_2013}
\citation{lanzas_multidrug-resistant_2013}
\citation{lanzas_multidrug-resistant_2013}
\citation{lanzas_multidrug-resistant_2013}
\citation{lanzas_multidrug-resistant_2013}
\citation{lanzas_multidrug-resistant_2013}
\citation{lanzas_multidrug-resistant_2013}
\citation{lanzas_multidrug-resistant_2013}
\citation{lanzas_multidrug-resistant_2013}
\citation{lanzas_multidrug-resistant_2013}
\citation{lanzas_multidrug-resistant_2013}
\citation{lanzas_multidrug-resistant_2013}
\citation{lanzas_multidrug-resistant_2013}
\citation{lanzas_multidrug-resistant_2013}
\citation{lanzas_multidrug-resistant_2013}
\citation{lanzas_multidrug-resistant_2013}
\citation{lanzas_multidrug-resistant_2013}
\citation{lanzas_multidrug-resistant_2013}
\citation{lanzas_multidrug-resistant_2013}
\citation{lanzas_multidrug-resistant_2013}
\citation{lanzas_multidrug-resistant_2013}
\citation{lanzas_multidrug-resistant_2013}
\citation{lanzas_multidrug-resistant_2013}
\citation{lanzas_multidrug-resistant_2013}
\citation{lanzas_multidrug-resistant_2013}
\citation{lanzas_multidrug-resistant_2013}
\citation{lanzas_multidrug-resistant_2013}
\citation{lanzas_multidrug-resistant_2013}
\citation{lanzas_multidrug-resistant_2013}
\citation{lanzas_multidrug-resistant_2013}
\citation{lanzas_multidrug-resistant_2013}
\citation{lanzas_multidrug-resistant_2013}
\citation{lanzas_multidrug-resistant_2013}
\citation{lanzas_multidrug-resistant_2013}
\citation{lanzas_multidrug-resistant_2013}
\citation{lanzas_multidrug-resistant_2013}
\citation{lanzas_multidrug-resistant_2013}
\citation{lanzas_multidrug-resistant_2013}
\citation{lanzas_multidrug-resistant_2013}
\citation{lanzas_multidrug-resistant_2013}
\citation{lanzas_multidrug-resistant_2013}
\citation{lanzas_multidrug-resistant_2013}
\citation{lanzas_multidrug-resistant_2013}
\citation{lanzas_multidrug-resistant_2013}
\citation{lanzas_multidrug-resistant_2013}
\citation{lanzas_multidrug-resistant_2013}
\citation{lanzas_multidrug-resistant_2013}
\citation{lanzas_multidrug-resistant_2013}
\citation{lanzas_multidrug-resistant_2013}
\citation{lanzas_multidrug-resistant_2013}
\citation{lanzas_multidrug-resistant_2013}
\citation{lanzas_multidrug-resistant_2013}
\citation{lanzas_multidrug-resistant_2013}
\citation{lanzas_multidrug-resistant_2013}
\citation{lanzas_multidrug-resistant_2013}
\citation{lanzas_multidrug-resistant_2013}
\citation{lanzas_multidrug-resistant_2013}
\citation{lanzas_multidrug-resistant_2013}
\citation{lanzas_multidrug-resistant_2013}
\citation{lanzas_multidrug-resistant_2013}
\citation{lanzas_multidrug-resistant_2013}
\citation{lanzas_multidrug-resistant_2013}
\citation{lanzas_multidrug-resistant_2013}
\citation{lanzas_multidrug-resistant_2013}
\citation{lanzas_multidrug-resistant_2013}
\citation{lanzas_multidrug-resistant_2013}
\citation{lanzas_multidrug-resistant_2013}
\citation{lanzas_multidrug-resistant_2013}
\citation{lanzas_multidrug-resistant_2013}
\citation{lanzas_multidrug-resistant_2013}
\citation{lanzas_multidrug-resistant_2013}
\citation{lanzas_multidrug-resistant_2013}
\citation{lanzas_multidrug-resistant_2013}
\citation{lanzas_multidrug-resistant_2013}
\citation{lanzas_multidrug-resistant_2013}
\citation{lanzas_multidrug-resistant_2013}
\citation{lanzas_multidrug-resistant_2013}
\citation{lanzas_multidrug-resistant_2013}
\citation{lanzas_multidrug-resistant_2013}
\citation{lanzas_multidrug-resistant_2013}
\citation{lanzas_multidrug-resistant_2013}
\citation{lanzas_multidrug-resistant_2013}
\citation{lanzas_multidrug-resistant_2013}
\citation{lanzas_multidrug-resistant_2013}
\citation{lanzas_multidrug-resistant_2013}
\citation{lanzas_multidrug-resistant_2013}
\citation{lanzas_multidrug-resistant_2013}
\citation{lanzas_multidrug-resistant_2013}
\citation{lanzas_multidrug-resistant_2013}
\citation{lanzas_multidrug-resistant_2013}
\citation{lanzas_multidrug-resistant_2013}
\citation{lanzas_multidrug-resistant_2013}
\citation{lanzas_multidrug-resistant_2013}
\citation{lanzas_multidrug-resistant_2013}
\citation{lanzas_multidrug-resistant_2013}
\citation{lanzas_multidrug-resistant_2013}
\citation{lanzas_multidrug-resistant_2013}
\citation{lanzas_multidrug-resistant_2013}
\citation{lanzas_multidrug-resistant_2013}
\citation{lanzas_multidrug-resistant_2013}
\citation{lanzas_multidrug-resistant_2013}
\citation{lanzas_multidrug-resistant_2013}
\citation{lanzas_multidrug-resistant_2013}
\citation{lanzas_multidrug-resistant_2013}
\citation{lanzas_multidrug-resistant_2013}
\citation{lanzas_multidrug-resistant_2013}
\citation{lanzas_multidrug-resistant_2013}
\citation{lanzas_multidrug-resistant_2013}
\citation{lanzas_multidrug-resistant_2013}
\citation{lanzas_multidrug-resistant_2013}
\citation{lanzas_multidrug-resistant_2013}
\citation{lanzas_multidrug-resistant_2013}
\citation{lanzas_multidrug-resistant_2013}
\citation{lanzas_multidrug-resistant_2013}
\citation{lanzas_multidrug-resistant_2013}
\citation{lanzas_multidrug-resistant_2013}
\citation{lanzas_multidrug-resistant_2013}
\citation{lanzas_multidrug-resistant_2013}
\citation{lanzas_multidrug-resistant_2013}
\citation{lanzas_multidrug-resistant_2013}
\citation{lanzas_multidrug-resistant_2013}
\citation{lanzas_multidrug-resistant_2013}
\citation{lanzas_multidrug-resistant_2013}
\citation{lanzas_multidrug-resistant_2013}
\citation{lanzas_multidrug-resistant_2013}
\citation{lanzas_multidrug-resistant_2013}
\citation{lanzas_multidrug-resistant_2013}
\citation{lanzas_multidrug-resistant_2013}
\citation{lanzas_multidrug-resistant_2013}
\citation{lanzas_multidrug-resistant_2013}
\citation{lanzas_multidrug-resistant_2013}
\citation{lanzas_multidrug-resistant_2013}
\citation{lanzas_multidrug-resistant_2013}
\citation{lanzas_multidrug-resistant_2013}
\citation{lanzas_multidrug-resistant_2013}
\citation{lanzas_multidrug-resistant_2013}
\citation{lanzas_multidrug-resistant_2013}
\citation{lanzas_multidrug-resistant_2013}
\citation{lanzas_multidrug-resistant_2013}
\citation{lanzas_multidrug-resistant_2013}
\citation{lanzas_multidrug-resistant_2013}
\citation{lanzas_multidrug-resistant_2013}
\citation{lanzas_multidrug-resistant_2013}
\citation{lanzas_multidrug-resistant_2013}
\citation{lanzas_multidrug-resistant_2013}
\citation{lanzas_multidrug-resistant_2013}
\citation{lanzas_multidrug-resistant_2013}
\citation{lanzas_multidrug-resistant_2013}
\citation{lanzas_multidrug-resistant_2013}
\citation{lanzas_multidrug-resistant_2013}
\citation{lanzas_multidrug-resistant_2013}
\citation{lanzas_multidrug-resistant_2013}
\citation{lanzas_multidrug-resistant_2013}
\citation{lanzas_multidrug-resistant_2013}
\citation{lanzas_multidrug-resistant_2013}
\citation{lanzas_multidrug-resistant_2013}
\citation{lanzas_multidrug-resistant_2013}
\citation{lanzas_multidrug-resistant_2013}
\citation{lanzas_multidrug-resistant_2013}
\citation{lanzas_multidrug-resistant_2013}
\citation{lanzas_multidrug-resistant_2013}
\citation{lanzas_multidrug-resistant_2013}
\citation{lanzas_multidrug-resistant_2013}
\citation{lanzas_multidrug-resistant_2013}
\citation{lanzas_multidrug-resistant_2013}
\citation{lanzas_multidrug-resistant_2013}
\citation{lanzas_multidrug-resistant_2013}
\citation{lanzas_multidrug-resistant_2013}
\citation{lanzas_multidrug-resistant_2013}
\citation{lanzas_multidrug-resistant_2013}
\citation{lanzas_multidrug-resistant_2013}
\citation{lanzas_multidrug-resistant_2013}
\citation{lanzas_multidrug-resistant_2013}
\citation{lanzas_multidrug-resistant_2013}
\citation{lanzas_multidrug-resistant_2013}
\citation{lanzas_multidrug-resistant_2013}
\citation{lanzas_multidrug-resistant_2013}
\citation{lanzas_multidrug-resistant_2013}
\citation{lanzas_multidrug-resistant_2013}
\citation{lanzas_multidrug-resistant_2013}
\citation{lanzas_multidrug-resistant_2013}
\citation{lanzas_multidrug-resistant_2013}
\citation{lanzas_multidrug-resistant_2013}
\citation{lanzas_multidrug-resistant_2013}
\citation{lanzas_multidrug-resistant_2013}
\citation{lanzas_multidrug-resistant_2013}
\citation{lanzas_multidrug-resistant_2013}
\citation{lanzas_multidrug-resistant_2013}
\citation{lanzas_multidrug-resistant_2013}
\citation{lanzas_multidrug-resistant_2013}
\citation{lanzas_multidrug-resistant_2013}
\citation{lanzas_multidrug-resistant_2013}
\citation{lanzas_multidrug-resistant_2013}
\citation{lanzas_multidrug-resistant_2013}
\citation{lanzas_multidrug-resistant_2013}
\citation{lanzas_multidrug-resistant_2013}
\citation{lanzas_multidrug-resistant_2013}
\citation{lanzas_multidrug-resistant_2013}
\citation{lanzas_multidrug-resistant_2013}
\citation{lanzas_multidrug-resistant_2013}
\citation{lanzas_multidrug-resistant_2013}
\citation{lanzas_multidrug-resistant_2013}
\citation{lanzas_multidrug-resistant_2013}
\citation{lanzas_multidrug-resistant_2013}
\citation{lanzas_multidrug-resistant_2013}
\citation{lanzas_multidrug-resistant_2013}
\citation{lanzas_multidrug-resistant_2013}
\citation{lanzas_multidrug-resistant_2013}
\citation{lanzas_multidrug-resistant_2013}
\citation{lanzas_multidrug-resistant_2013}
\citation{lanzas_multidrug-resistant_2013}
\citation{lanzas_multidrug-resistant_2013}
\citation{lanzas_multidrug-resistant_2013}
\citation{lanzas_multidrug-resistant_2013}
\citation{lanzas_multidrug-resistant_2013}
\citation{lanzas_multidrug-resistant_2013}
\citation{lanzas_multidrug-resistant_2013}
\citation{lanzas_multidrug-resistant_2013}
\citation{lanzas_multidrug-resistant_2013}
\citation{lanzas_multidrug-resistant_2013}
\citation{lanzas_multidrug-resistant_2013}
\citation{lanzas_multidrug-resistant_2013}
\citation{lanzas_multidrug-resistant_2013}
\citation{lanzas_multidrug-resistant_2013}
\citation{lanzas_multidrug-resistant_2013}
\citation{lanzas_multidrug-resistant_2013}
\citation{lanzas_multidrug-resistant_2013}
\citation{ioerger_non-clonality_2010}
\citation{ioerger_non-clonality_2010}
\citation{ioerger_non-clonality_2010}
\citation{ioerger_non-clonality_2010}
\citation{ioerger_non-clonality_2010}
\citation{ioerger_non-clonality_2010}
\citation{ioerger_non-clonality_2010}
\citation{ioerger_non-clonality_2010}
\citation{ioerger_non-clonality_2010}
\citation{ioerger_non-clonality_2010}
\citation{ioerger_non-clonality_2010}
\citation{ioerger_non-clonality_2010}
\citation{ioerger_non-clonality_2010}
\citation{ioerger_non-clonality_2010}
\citation{ioerger_non-clonality_2010}
\citation{ioerger_non-clonality_2010}
\citation{ioerger_non-clonality_2010}
\citation{ioerger_non-clonality_2010}
\citation{ioerger_non-clonality_2010}
\citation{ioerger_non-clonality_2010}
\citation{ioerger_non-clonality_2010}
\citation{osorio_evidence_2013}
\citation{osorio_evidence_2013}
\citation{osorio_evidence_2013}
\citation{osorio_evidence_2013}
\citation{sandegren_genomic_2011}
\citation{sandegren_genomic_2011}
\citation{sandegren_genomic_2011}
\citation{sandegren_genomic_2011}
\citation{sandegren_genomic_2011}
\citation{sandegren_genomic_2011}
\citation{sandegren_genomic_2011}
\citation{shitikov_unusual_2014}
\citation{shitikov_unusual_2014}
\citation{shitikov_unusual_2014}
\citation{shitikov_unusual_2014}
\citation{shitikov_unusual_2014}
\citation{shitikov_unusual_2014}
\citation{shitikov_unusual_2014}
\citation{shitikov_unusual_2014}
\citation{shitikov_unusual_2014}
\citation{osorio_evidence_2013}
\citation{osorio_evidence_2013}
\citation{osorio_evidence_2013}
\citation{osorio_evidence_2013}
\citation{osorio_evidence_2013}
\citation{osorio_evidence_2013}
\citation{osorio_evidence_2013}
\citation{osorio_evidence_2013}
\citation{osorio_evidence_2013}
\citation{osorio_evidence_2013}
\citation{osorio_evidence_2013}
\citation{osorio_evidence_2013}
\citation{osorio_evidence_2013}
\citation{osorio_evidence_2013}
\citation{osorio_evidence_2013}
\citation{osorio_evidence_2013}
\citation{osorio_evidence_2013}
\citation{osorio_evidence_2013}
\citation{osorio_evidence_2013}
\citation{osorio_evidence_2013}
\citation{osorio_evidence_2013}
\citation{osorio_evidence_2013}
\citation{osorio_evidence_2013}
\citation{osorio_evidence_2013}
\citation{osorio_evidence_2013}
\citation{osorio_evidence_2013}
\citation{osorio_evidence_2013}
\citation{osorio_evidence_2013}
\citation{osorio_evidence_2013}
\citation{osorio_evidence_2013}
\citation{osorio_evidence_2013}
\citation{osorio_evidence_2013}
\citation{osorio_evidence_2013}
\citation{osorio_evidence_2013}
\citation{osorio_evidence_2013}
\citation{osorio_evidence_2013}
\citation{osorio_evidence_2013}
\citation{osorio_evidence_2013}
\citation{osorio_evidence_2013}
\citation{osorio_evidence_2013}
\citation{osorio_evidence_2013}
\citation{osorio_evidence_2013}
\citation{osorio_evidence_2013}
\citation{osorio_evidence_2013}
\citation{osorio_evidence_2013}
\citation{osorio_evidence_2013}
\citation{osorio_evidence_2013}
\citation{osorio_evidence_2013}
\citation{osorio_evidence_2013}
\citation{osorio_evidence_2013}
\citation{osorio_evidence_2013}
\citation{osorio_evidence_2013}
\citation{osorio_evidence_2013}
\citation{osorio_evidence_2013}
\citation{osorio_evidence_2013}
\citation{osorio_evidence_2013}
\citation{osorio_evidence_2013}
\citation{osorio_evidence_2013}
\citation{osorio_evidence_2013}
\citation{osorio_evidence_2013}
\citation{osorio_evidence_2013}
\citation{osorio_evidence_2013}
\citation{osorio_evidence_2013}
\citation{osorio_evidence_2013}
\citation{osorio_evidence_2013}
\citation{osorio_evidence_2013}
\citation{osorio_evidence_2013}
\citation{osorio_evidence_2013}
\citation{osorio_evidence_2013}
\citation{osorio_evidence_2013}
\citation{osorio_evidence_2013}
\citation{osorio_evidence_2013}
\citation{osorio_evidence_2013}
\citation{osorio_evidence_2013}
\citation{osorio_evidence_2013}
\citation{osorio_evidence_2013}
\citation{osorio_evidence_2013}
\citation{osorio_evidence_2013}
\citation{osorio_evidence_2013}
\citation{osorio_evidence_2013}
\citation{osorio_evidence_2013}
\citation{osorio_evidence_2013}
\citation{osorio_evidence_2013}
\citation{osorio_evidence_2013}
\citation{osorio_evidence_2013}
\citation{osorio_evidence_2013}
\citation{osorio_evidence_2013}
\citation{osorio_evidence_2013}
\citation{osorio_evidence_2013}
\citation{osorio_evidence_2013}
\citation{osorio_evidence_2013}
\citation{osorio_evidence_2013}
\citation{osorio_evidence_2013}
\citation{osorio_evidence_2013}
\citation{osorio_evidence_2013}
\citation{osorio_evidence_2013}
\citation{osorio_evidence_2013}
\citation{osorio_evidence_2013}
\citation{osorio_evidence_2013}
\citation{osorio_evidence_2013}
\citation{osorio_evidence_2013}
\citation{osorio_evidence_2013}
\citation{osorio_evidence_2013}
\citation{osorio_evidence_2013}
\citation{osorio_evidence_2013}
\citation{osorio_evidence_2013}
\citation{osorio_evidence_2013}
\citation{osorio_evidence_2013}
\citation{osorio_evidence_2013}
\citation{osorio_evidence_2013}
\citation{osorio_evidence_2013}
\citation{osorio_evidence_2013}
\citation{osorio_evidence_2013}
\citation{osorio_evidence_2013}
\citation{osorio_evidence_2013}
\citation{osorio_evidence_2013}
\citation{osorio_evidence_2013}
\citation{osorio_evidence_2013}
\citation{osorio_evidence_2013}
\citation{osorio_evidence_2013}
\citation{osorio_evidence_2013}
\citation{osorio_evidence_2013}
\citation{osorio_evidence_2013}
\citation{osorio_evidence_2013}
\citation{osorio_evidence_2013}
\citation{osorio_evidence_2013}
\citation{osorio_evidence_2013}
\citation{osorio_evidence_2013}
\citation{osorio_evidence_2013}
\citation{osorio_evidence_2013}
\citation{osorio_evidence_2013}
\citation{osorio_evidence_2013}
\citation{osorio_evidence_2013}
\citation{osorio_evidence_2013}
\citation{osorio_evidence_2013}
\citation{osorio_evidence_2013}
\citation{osorio_evidence_2013}
\citation{osorio_evidence_2013}
\citation{osorio_evidence_2013}
\citation{osorio_evidence_2013}
\citation{osorio_evidence_2013}
\citation{osorio_evidence_2013}
\citation{osorio_evidence_2013}
\citation{osorio_evidence_2013}
\citation{osorio_evidence_2013}
\citation{osorio_evidence_2013}
\citation{osorio_evidence_2013}
\citation{osorio_evidence_2013}
\citation{osorio_evidence_2013}
\citation{osorio_evidence_2013}
\citation{osorio_evidence_2013}
\citation{osorio_evidence_2013}
\citation{osorio_evidence_2013}
\citation{osorio_evidence_2013}
\citation{osorio_evidence_2013}
\citation{osorio_evidence_2013}
\citation{osorio_evidence_2013}
\citation{osorio_evidence_2013}
\citation{osorio_evidence_2013}
\citation{osorio_evidence_2013}
\citation{osorio_evidence_2013}
\citation{osorio_evidence_2013}
\citation{osorio_evidence_2013}
\citation{osorio_evidence_2013}
\citation{osorio_evidence_2013}
\citation{osorio_evidence_2013}
\citation{osorio_evidence_2013}
\citation{osorio_evidence_2013}
\citation{osorio_evidence_2013}
\citation{osorio_evidence_2013}
\citation{osorio_evidence_2013}
\citation{osorio_evidence_2013}
\citation{osorio_evidence_2013}
\citation{osorio_evidence_2013}
\citation{osorio_evidence_2013}
\citation{osorio_evidence_2013}
\citation{osorio_evidence_2013}
\citation{osorio_evidence_2013}
\citation{osorio_evidence_2013}
\citation{osorio_evidence_2013}
\citation{osorio_evidence_2013}
\citation{osorio_evidence_2013}
\citation{osorio_evidence_2013}
\citation{osorio_evidence_2013}
\citation{osorio_evidence_2013}
\citation{osorio_evidence_2013}
\citation{osorio_evidence_2013}
\citation{osorio_evidence_2013}
\citation{osorio_evidence_2013}
\citation{osorio_evidence_2013}
\citation{osorio_evidence_2013}
\citation{osorio_evidence_2013}
\citation{osorio_evidence_2013}
\citation{osorio_evidence_2013}
\citation{osorio_evidence_2013}
\citation{osorio_evidence_2013}
\citation{osorio_evidence_2013}
\citation{osorio_evidence_2013}
\citation{osorio_evidence_2013}
\citation{osorio_evidence_2013}
\citation{osorio_evidence_2013}
\citation{osorio_evidence_2013}
\citation{osorio_evidence_2013}
\citation{osorio_evidence_2013}
\citation{osorio_evidence_2013}
\citation{osorio_evidence_2013}
\citation{osorio_evidence_2013}
\citation{osorio_evidence_2013}
\citation{osorio_evidence_2013}
\citation{osorio_evidence_2013}
\citation{ng_draft_2013}
\citation{ng_draft_2013}
\citation{ng_draft_2013}
\citation{ng_draft_2013}
\citation{ng_draft_2013}
\citation{ng_draft_2013}
\citation{ng_draft_2013}
\citation{ng_draft_2013}
\citation{ng_draft_2013}
\citation{ng_draft_2013}
\citation{ng_draft_2013}
\citation{broad_institute_broad_????}
\citation{broad_institute_broad_????}
\citation{wu_genome-wide_2013}
\citation{wu_genome-wide_2013}
\citation{wu_genome-wide_2013}
\citation{wu_genome-wide_2013}
\citation{wu_genome-wide_2013}
\citation{wu_genome-wide_2013}
\citation{wu_genome-wide_2013}
\citation{wu_genome-wide_2013}
\citation{wu_genome-wide_2013}
\citation{wu_genome-wide_2013}
\citation{wu_genome-wide_2013}
\citation{wu_genome-wide_2013}
\citation{wu_genome-wide_2013}
\citation{wu_genome-wide_2013}
\citation{wu_genome-wide_2013}
\citation{wu_genome-wide_2013}
\citation{ioerger_non-clonality_2010}
\citation{ioerger_non-clonality_2010}
\citation{ioerger_non-clonality_2010}
\citation{ioerger_non-clonality_2010}
\citation{ioerger_non-clonality_2010}
\citation{ioerger_non-clonality_2010}
\citation{ioerger_non-clonality_2010}
\citation{ioerger_non-clonality_2010}
\citation{ioerger_non-clonality_2010}
\citation{ioerger_non-clonality_2010}
\citation{ioerger_non-clonality_2010}
\citation{ioerger_non-clonality_2010}
\citation{ioerger_non-clonality_2010}
\citation{ioerger_non-clonality_2010}
\citation{ioerger_non-clonality_2010}
\citation{ioerger_non-clonality_2010}
\citation{ioerger_non-clonality_2010}
\citation{ioerger_non-clonality_2010}
\citation{ioerger_non-clonality_2010}
\citation{ioerger_non-clonality_2010}
\citation{ioerger_non-clonality_2010}
\citation{ioerger_non-clonality_2010}
\citation{ioerger_non-clonality_2010}
\citation{ioerger_non-clonality_2010}
\citation{ioerger_non-clonality_2010}
\citation{ioerger_non-clonality_2010}
\citation{ioerger_non-clonality_2010}
\citation{ioerger_non-clonality_2010}
\citation{ioerger_non-clonality_2010}
\citation{ioerger_non-clonality_2010}
\citation{ioerger_non-clonality_2010}
\citation{ioerger_non-clonality_2010}
\citation{ioerger_non-clonality_2010}
\citation{ioerger_non-clonality_2010}
\citation{ioerger_non-clonality_2010}
\citation{ioerger_non-clonality_2010}
\citation{ioerger_non-clonality_2010}
\citation{ioerger_non-clonality_2010}
\citation{ioerger_non-clonality_2010}
\citation{ioerger_non-clonality_2010}
\citation{ioerger_non-clonality_2010}
\citation{ioerger_non-clonality_2010}
\citation{ioerger_non-clonality_2010}
\citation{ioerger_non-clonality_2010}
\citation{ioerger_non-clonality_2010}
\citation{ioerger_non-clonality_2010}
\citation{ioerger_non-clonality_2010}
\citation{ioerger_non-clonality_2010}
\citation{ioerger_non-clonality_2010}
\citation{ioerger_non-clonality_2010}
\citation{ioerger_non-clonality_2010}
\citation{ioerger_non-clonality_2010}
\citation{ioerger_non-clonality_2010}
\citation{ioerger_non-clonality_2010}
\citation{ioerger_non-clonality_2010}
\citation{ioerger_non-clonality_2010}
\citation{ioerger_non-clonality_2010}
\citation{ioerger_non-clonality_2010}
\citation{wu_genome-wide_2013}
\citation{wu_genome-wide_2013}
\citation{wu_genome-wide_2013}
\citation{wu_genome-wide_2013}
\citation{wu_genome-wide_2013}
\citation{wu_genome-wide_2013}
\citation{wu_genome-wide_2013}
\citation{wu_genome-wide_2013}
\citation{wu_genome-wide_2013}
\citation{wu_genome-wide_2013}
\citation{wu_genome-wide_2013}
\citation{wu_genome-wide_2013}
\citation{wu_genome-wide_2013}
\citation{wu_genome-wide_2013}
\citation{wu_genome-wide_2013}
\citation{wu_genome-wide_2013}
\bibdata{references}
\bibcite{ilina_comparative_2013}{1}
\bibcite{broad_institute_broad_????}{2}
\bibcite{ioerger_non-clonality_2010}{3}
\bibcite{ioerger_genome_2009}{4}
\bibcite{kairov_whole_2013}{5}
\bibcite{lanzas_multidrug-resistant_2013}{6}
\bibcite{lin_draft_2013}{7}
\bibcite{maus_molecular_2005}{8}
\bibcite{ng_draft_2013}{9}
\bibcite{ordway_drug-resistant_1995}{10}
\bibcite{osorio_evidence_2013}{11}
\bibcite{roetzer_whole_2013}{12}
\bibcite{safi_transfer_2008}{13}
\bibcite{sandegren_genomic_2011}{14}
\bibcite{shitikov_unusual_2014}{15}
\bibcite{tateishi_whole-genome_2013}{16}
\bibcite{tsui_genome_2013}{17}
\bibcite{vellarikkal_draft_2013-3}{18}
\bibcite{vellarikkal_draft_2013-1}{19}
\bibcite{vellarikkal_draft_2013-2}{20}
\bibcite{vellarikkal_draft_2013}{21}
\bibcite{wu_genome-wide_2013}{22}
\bibcite{zhang_complete_2011}{23}
\bibstyle{plain}
\@writefile{lot}{\contentsline {table}{\numberline {1}{\ignorespaces \bf  {Complete collected data on drug resistance.}\relax }}{1}}
