This is BibTeX, Version 0.99dThe top-level auxiliary file: data-res.aux
The style file: plain.bst
Database file #1: references.bib
Warning--I didn't find a database entry for "edgeworth_outbreak_2007"
Warning--I didn't find a database entry for "schijffelen_whole_2010"
Warning--I didn't find a database entry for "herron-olson_molecular_2007"
Warning--I didn't find a database entry for "mwangi_tracking_2007"
Warning--empty booktitle in kairov_whole_2013
(There were 5 warnings)
