\relax 
\citation{brueggemann_mlst_2013}
\citation{brueggemann_mlst_2013}
\citation{brueggemann_mlst_2013}
\citation{brueggemann_mlst_2013}
\citation{brueggemann_mlst_2013}
\citation{brueggemann_mlst_2013}
\citation{brueggemann_mlst_2013}
\citation{fani_whole_2011}
\citation{fani_whole_2011}
\citation{fani_whole_2011}
\citation{fani_whole_2011}
\citation{fani_whole_2011}
\citation{fani_whole_2011}
\citation{fani_whole_2011}
\citation{brueggemann_mlst_2013}
\citation{brueggemann_mlst_2013}
\citation{brueggemann_mlst_2013}
\citation{brueggemann_mlst_2013}
\citation{brueggemann_mlst_2013}
\citation{brueggemann_mlst_2013}
\citation{brueggemann_mlst_2013}
\citation{brueggemann_mlst_2013}
\citation{brueggemann_mlst_2013}
\citation{brueggemann_mlst_2013}
\citation{brueggemann_mlst_2013}
\citation{brueggemann_mlst_2013}
\citation{brueggemann_mlst_2013}
\citation{brueggemann_mlst_2013}
\citation{brueggemann_mlst_2013}
\citation{brueggemann_mlst_2013}
\citation{brueggemann_mlst_2013}
\citation{brueggemann_mlst_2013}
\citation{brueggemann_mlst_2013}
\citation{brueggemann_mlst_2013}
\citation{brueggemann_mlst_2013}
\citation{brueggemann_mlst_2013}
\citation{brueggemann_mlst_2013}
\citation{brueggemann_mlst_2013}
\citation{brueggemann_mlst_2013}
\citation{brueggemann_mlst_2013}
\citation{brueggemann_mlst_2013}
\citation{brueggemann_mlst_2013}
\citation{brueggemann_mlst_2013}
\citation{brueggemann_mlst_2013}
\citation{brueggemann_mlst_2013}
\citation{brueggemann_mlst_2013}
\citation{brueggemann_mlst_2013}
\citation{brueggemann_mlst_2013}
\citation{brueggemann_mlst_2013}
\citation{brueggemann_mlst_2013}
\citation{brueggemann_mlst_2013}
\citation{brueggemann_mlst_2013}
\citation{brueggemann_mlst_2013}
\citation{brueggemann_mlst_2013}
\citation{brueggemann_mlst_2013}
\citation{brueggemann_mlst_2013}
\citation{brueggemann_mlst_2013}
\citation{brueggemann_mlst_2013}
\citation{brueggemann_mlst_2013}
\citation{brueggemann_mlst_2013}
\citation{brueggemann_mlst_2013}
\citation{brueggemann_mlst_2013}
\citation{brueggemann_mlst_2013}
\citation{brueggemann_mlst_2013}
\citation{brueggemann_mlst_2013}
\citation{brueggemann_mlst_2013}
\citation{brueggemann_mlst_2013}
\citation{brueggemann_mlst_2013}
\citation{brueggemann_mlst_2013}
\citation{brueggemann_mlst_2013}
\citation{brueggemann_mlst_2013}
\citation{brueggemann_mlst_2013}
\citation{brueggemann_mlst_2013}
\citation{brueggemann_mlst_2013}
\citation{brueggemann_mlst_2013}
\citation{brueggemann_mlst_2013}
\citation{brueggemann_mlst_2013}
\citation{brueggemann_mlst_2013}
\citation{brueggemann_mlst_2013}
\citation{brueggemann_mlst_2013}
\citation{brueggemann_mlst_2013}
\citation{sui_complete_2013}
\citation{sui_complete_2013}
\citation{sui_complete_2013}
\citation{sui_complete_2013}
\citation{sui_complete_2013}
\citation{sui_complete_2013}
\citation{sui_complete_2013}
\citation{brueggemann_mlst_2013}
\citation{brueggemann_mlst_2013}
\citation{brueggemann_mlst_2013}
\citation{croucher_role_2009}
\citation{croucher_role_2009}
\citation{croucher_role_2009}
\citation{fani_whole_2011}
\citation{fani_whole_2011}
\citation{fani_whole_2011}
\citation{fani_whole_2011}
\citation{fani_whole_2011}
\citation{fani_whole_2011}
\citation{fani_whole_2011}
\citation{fani_whole_2011}
\citation{fani_whole_2011}
\citation{fani_whole_2011}
\citation{fani_whole_2011}
\citation{fani_whole_2011}
\citation{fani_whole_2011}
\citation{fani_whole_2011}
\citation{ding_genome_2009}
\citation{ding_genome_2009}
\citation{ding_genome_2009}
\citation{pillai_genome-wide_2009}
\citation{pillai_genome-wide_2009}
\citation{pillai_genome-wide_2009}
\citation{pillai_genome-wide_2009}
\citation{brueggemann_mlst_2013}
\citation{brueggemann_mlst_2013}
\citation{brueggemann_mlst_2013}
\citation{brueggemann_mlst_2013}
\citation{brueggemann_mlst_2013}
\citation{dopazo_annotated_2001}
\citation{dopazo_annotated_2001}
\citation{brueggemann_mlst_2013}
\citation{brueggemann_mlst_2013}
\citation{brueggemann_mlst_2013}
\citation{brueggemann_mlst_2013}
\citation{brueggemann_mlst_2013}
\citation{brueggemann_mlst_2013}
\citation{brueggemann_mlst_2013}
\citation{brueggemann_mlst_2013}
\citation{brueggemann_mlst_2013}
\citation{brueggemann_mlst_2013}
\citation{inverarity_genomic_2009}
\citation{inverarity_genomic_2009}
\citation{inverarity_genomic_2009}
\citation{inverarity_genomic_2009}
\citation{inverarity_genomic_2009}
\citation{inverarity_genomic_2009}
\citation{inverarity_genomic_2009}
\citation{inverarity_genomic_2009}
\citation{inverarity_genomic_2009}
\citation{inverarity_genomic_2009}
\citation{inverarity_genomic_2009}
\citation{inverarity_genomic_2009}
\citation{brueggemann_mlst_2013}
\citation{brueggemann_mlst_2013}
\citation{brueggemann_mlst_2013}
\citation{brueggemann_mlst_2013}
\citation{brueggemann_mlst_2013}
\citation{brueggemann_mlst_2013}
\citation{brueggemann_mlst_2013}
\citation{brueggemann_mlst_2013}
\citation{brueggemann_mlst_2013}
\citation{brueggemann_mlst_2013}
\citation{brueggemann_mlst_2013}
\citation{brueggemann_mlst_2013}
\citation{brueggemann_mlst_2013}
\citation{brueggemann_mlst_2013}
\citation{brueggemann_mlst_2013}
\citation{brueggemann_mlst_2013}
\citation{brueggemann_mlst_2013}
\citation{brueggemann_mlst_2013}
\citation{brueggemann_mlst_2013}
\citation{fani_whole_2011}
\citation{fani_whole_2011}
\citation{brueggemann_mlst_2013}
\citation{fani_whole_2011}
\citation{fani_whole_2011}
\citation{fani_whole_2011}
\citation{fani_whole_2011}
\citation{fani_whole_2011}
\citation{fani_whole_2011}
\citation{fani_whole_2011}
\citation{fani_whole_2011}
\citation{fani_whole_2011}
\citation{fani_whole_2011}
\citation{fani_whole_2011}
\citation{fani_whole_2011}
\citation{chen_genetic_2008}
\citation{chen_genetic_2008}
\citation{chen_genetic_2008}
\citation{chen_genetic_2008}
\citation{hu_vivo_2012}
\citation{hu_vivo_2012}
\citation{hu_vivo_2012}
\citation{hu_vivo_2012}
\citation{hu_vivo_2012}
\citation{hu_vivo_2012}
\citation{hu_vivo_2012}
\citation{hu_vivo_2012}
\citation{hu_vivo_2012}
\citation{hu_vivo_2012}
\citation{hu_vivo_2012}
\citation{hu_vivo_2012}
\citation{inverarity_genomic_2009}
\citation{brueggemann_mlst_2013}
\citation{inverarity_genomic_2009}
\citation{inverarity_genomic_2009}
\citation{inverarity_genomic_2009}
\citation{inverarity_genomic_2009}
\citation{inverarity_genomic_2009}
\citation{inverarity_genomic_2009}
\citation{brueggemann_mlst_2013}
\citation{inverarity_genomic_2009}
\citation{inverarity_genomic_2009}
\citation{inverarity_genomic_2009}
\citation{inverarity_genomic_2009}
\citation{inverarity_genomic_2009}
\citation{brueggemann_mlst_2013}
\citation{brueggemann_mlst_2013}
\citation{brueggemann_mlst_2013}
\citation{brueggemann_mlst_2013}
\citation{brueggemann_mlst_2013}
\bibdata{references}
\bibcite{brueggemann_mlst_2013}{1}
\bibcite{chen_genetic_2008}{2}
\bibcite{croucher_role_2009}{3}
\bibcite{ding_genome_2009}{4}
\bibcite{dopazo_annotated_2001}{5}
\bibcite{fani_whole_2011}{6}
\bibcite{hu_vivo_2012}{7}
\bibcite{inverarity_genomic_2009}{8}
\bibcite{pillai_genome-wide_2009}{9}
\bibcite{sui_complete_2013}{10}
\bibstyle{plain}
\@writefile{lot}{\contentsline {table}{\numberline {1}{\ignorespaces \bf  {Complete collected data on drug resistance.}\relax }}{1}}
